<COLLADA xmlns="http://www.collada.org/2008/03/COLLADASchema" version="1.5.0">
  <asset>
    <contributor>
      <author>Blender User</author>
      <authoring_tool>Blender 2.73.0 commit date:2015-01-07, commit time:13:17, hash:b4d8fb5</authoring_tool>
    </contributor>
    <created>2015-02-26T17:58:10</created>
    <modified>2015-02-26T17:58:10</modified>
    <unit meter="1" name="meter" />
    <up_axis>Z_UP</up_axis>
  </asset>
  <library_cameras>
    <camera id="Camera-camera" name="Camera">
      <optics>
        <technique_common>
          <perspective>
            <xfov sid="xfov">49.13434</xfov>
            <aspect_ratio>1.777778</aspect_ratio>
            <znear sid="znear">0.1</znear>
            <zfar sid="zfar">100</zfar>
          </perspective>
        </technique_common>
      </optics>
      <extra>
        <technique profile="blender">
          <YF_dofdist>0</YF_dofdist>
          <shiftx>0</shiftx>
          <shifty>0</shifty>
        </technique>
      </extra>
    </camera>
  </library_cameras>
  <library_lights>
    <light id="Lamp-light" name="Lamp">
      <technique_common>
        <point>
          <color sid="color">1 1 1</color>
          <constant_attenuation>1</constant_attenuation>
          <linear_attenuation>0</linear_attenuation>
          <quadratic_attenuation>0.00111109</quadratic_attenuation>
        </point>
      </technique_common>
      <extra>
        <technique profile="blender">
          <adapt_thresh>0.000999987</adapt_thresh>
          <area_shape>1</area_shape>
          <area_size>0.1</area_size>
          <area_sizey>0.1</area_sizey>
          <area_sizez>1</area_sizez>
          <atm_distance_factor>1</atm_distance_factor>
          <atm_extinction_factor>1</atm_extinction_factor>
          <atm_turbidity>2</atm_turbidity>
          <att1>0</att1>
          <att2>1</att2>
          <backscattered_light>1</backscattered_light>
          <bias>1</bias>
          <blue>1</blue>
          <buffers>1</buffers>
          <bufflag>0</bufflag>
          <bufsize>2880</bufsize>
          <buftype>2</buftype>
          <clipend>30.002</clipend>
          <clipsta>1.000799</clipsta>
          <compressthresh>0.04999995</compressthresh>
          <dist sid="blender_dist">29.99998</dist>
          <energy sid="blender_energy">1</energy>
          <falloff_type>2</falloff_type>
          <filtertype>0</filtertype>
          <flag>0</flag>
          <gamma sid="blender_gamma">1</gamma>
          <green>1</green>
          <halo_intensity sid="blnder_halo_intensity">1</halo_intensity>
          <horizon_brightness>1</horizon_brightness>
          <mode>8192</mode>
          <ray_samp>1</ray_samp>
          <ray_samp_method>1</ray_samp_method>
          <ray_samp_type>0</ray_samp_type>
          <ray_sampy>1</ray_sampy>
          <ray_sampz>1</ray_sampz>
          <red>1</red>
          <samp>3</samp>
          <shadhalostep>0</shadhalostep>
          <shadow_b sid="blender_shadow_b">0</shadow_b>
          <shadow_g sid="blender_shadow_g">0</shadow_g>
          <shadow_r sid="blender_shadow_r">0</shadow_r>
          <sky_colorspace>0</sky_colorspace>
          <sky_exposure>1</sky_exposure>
          <skyblendfac>1</skyblendfac>
          <skyblendtype>1</skyblendtype>
          <soft>3</soft>
          <spotblend>0.15</spotblend>
          <spotsize>75</spotsize>
          <spread>1</spread>
          <sun_brightness>1</sun_brightness>
          <sun_effect_type>0</sun_effect_type>
          <sun_intensity>1</sun_intensity>
          <sun_size>1</sun_size>
          <type>0</type>
        </technique>
      </extra>
    </light>
  </library_lights>
  <library_images />
  <library_effects>
    <effect id="Material-effect">
      <profile_COMMON>
        <technique sid="common">
          <phong>
            <emission>
              <color sid="emission">0 0 0 1</color>
            </emission>
            <ambient>
              <color sid="ambient">0 0 0 1</color>
            </ambient>
            <diffuse>
              <color sid="diffuse">0.76 0.76 0.76 1</color>
            </diffuse>
            <specular>
              <color sid="specular">0.5 0.5 0.5 1</color>
            </specular>
            <shininess>
              <float sid="shininess">50</float>
            </shininess>
            <index_of_refraction>
              <float sid="index_of_refraction">1</float>
            </index_of_refraction>
          </phong>
        </technique>
      </profile_COMMON>
    </effect>
  </library_effects>
  <library_materials>
    <material id="Material-material" name="Material">
      <instance_effect url="#Material-effect" />
    </material>
  </library_materials>
  <library_geometries>
    <geometry id="Cube-mesh" name="Cube">
      <mesh>
        <source id="Cube-mesh-positions">
          <float_array count="24" id="Cube-mesh-positions-array">1 1 -1 1 -1 -1 -1 -0.9999998 -1 -0.9999997 1 -1 1 0.9999995 1 0.9999994 -1.000001 1 -1 -0.9999997 1 -1 1 1</float_array>
          <technique_common>
            <accessor count="8" source="#Cube-mesh-positions-array" stride="3">
              <param name="X" type="float" />
              <param name="Y" type="float" />
              <param name="Z" type="float" />
            </accessor>
          </technique_common>
        </source>
        <source id="Cube-mesh-normals">
          <float_array count="36" id="Cube-mesh-normals-array">0 0 -1 0 0 1 1 -5.66244e-7 3.27825e-7 -4.76837e-7 -1 0 -1 2.08616e-7 -1.19209e-7 2.08616e-7 1 1.78814e-7 0 0 -1 0 0 1 1 0 -2.38419e-7 0 -1 -2.98023e-7 -1 2.38419e-7 -1.49012e-7 2.68221e-7 1 2.38419e-7</float_array>
          <technique_common>
            <accessor count="12" source="#Cube-mesh-normals-array" stride="3">
              <param name="X" type="float" />
              <param name="Y" type="float" />
              <param name="Z" type="float" />
            </accessor>
          </technique_common>
        </source>
        <vertices id="Cube-mesh-vertices">
          <input semantic="POSITION" source="#Cube-mesh-positions" />
        </vertices>
        <polylist count="12" material="Material-material">
          <input offset="0" semantic="VERTEX" source="#Cube-mesh-vertices" />
          <input offset="1" semantic="NORMAL" source="#Cube-mesh-normals" />
          <vcount>3 3 3 3 3 3 3 3 3 3 3 3 </vcount>
          <p>0 0 1 0 2 0 7 1 6 1 5 1 4 2 5 2 1 2 5 3 6 3 2 3 2 4 6 4 7 4 0 5 3 5 7 5 3 6 0 6 2 6 4 7 7 7 5 7 0 8 4 8 1 8 1 9 5 9 2 9 3 10 2 10 7 10 4 11 0 11 7 11</p>
        </polylist>
      </mesh>
    </geometry>
  </library_geometries>
  <library_controllers />
  <library_visual_scenes>
    <visual_scene id="Scene" name="Scene">
      <node id="Camera" name="Camera" type="NODE">
        <matrix sid="transform">0.4076597 -0.4026474 0.8195661 23.05941 0.9130702 0.1903485 -0.3606525 -9.734157 -0.0107874 0.8953449 0.4452427 12.79998 0 0 0 1</matrix>
        <instance_camera url="#Camera-camera" />
      </node>
      <node id="Lamp" name="Lamp" type="NODE">
        <matrix sid="transform">-0.2908646 -0.7711008 0.5663932 4.076245 0.9551712 -0.1998834 0.2183912 1.005454 -0.05518906 0.6045247 0.7946723 5.903862 0 0 0 1</matrix>
        <instance_light url="#Lamp-light" />
      </node>
      <node id="Floor" name="Floor" type="NODE">
        <matrix sid="transform">1 0 0 0 0 1 0 0 0 0 1 0 0 0 0 1</matrix>
        <node id="root_floor" name="root_floor" sid="root_floor" type="JOINT">
          <matrix sid="transform">1 0 0 0 0 1 0 0 0 0 1 0 0 0 0 1</matrix>
          <node id="Cube" name="Cube" type="NODE">
            <matrix sid="Inverted">1.0 -0.0 0.0 -0.0 -0.0 1.0 -0.0 0.0 0.0 -0.0 1.0 -0.0 -0.0 0.0 -0.0 1.0</matrix><matrix sid="transform">9.999995 0 0 0 0 9.999995 0 0 0 0 0.05 -0.05 0 0 0 1</matrix>
            <instance_geometry url="#Cube-mesh">
              <bind_material>
                <technique_common>
                  <instance_material symbol="Material-material" target="#Material-material" />
                </technique_common>
              </bind_material>
            </instance_geometry>
          </node>
        </node>
      </node>
    </visual_scene>
  </library_visual_scenes>
  <library_kinematics_scenes><kinematics_scene id="Floor_kinematics_scene"><instance_articulated_system sid="inst_Floor_motion" url="#Floor_motion"><bind symbol="Floor_kinematics_scene@Floor_motion@Floor_kinematics@inst_Floor_kinematics_model"><param ref="Floor_motion/Floor_motion@Floor_kinematics@inst_Floor_kinematics_model" /></bind><bind symbol="Floor_kinematics_scene@Floor_motion@Floor_kinematics@inst_Floor_kinematics_model@inst_root_floor_joint@axis0"><param ref="Floor_motion/Floor_motion@Floor_kinematics@inst_Floor_kinematics_model@inst_root_floor_joint@axis0" /></bind><bind symbol="Floor_kinematics_scene@Floor_motion@Floor_kinematics@inst_Floor_kinematics_model@inst_root_floor_joint_value"><param ref="Floor_motion/Floor_motion@Floor_kinematics@inst_Floor_kinematics_model@inst_root_floor_joint_value" /></bind></instance_articulated_system></kinematics_scene></library_kinematics_scenes><library_kinematics_models><kinematics_model id="Floor_kinematics_model"><technique_common><instance_joint sid="inst_root_floor_joint" url="#root_floor_joint" /><link name="Floor_root_link" sid="Floor_root_link"><attachment_full joint="Floor_kinematics_model/inst_root_floor_joint"><translate>0.0 0.0 0.0</translate><rotate>0 0 1 0.0</rotate><rotate>0 1 0 -0.0</rotate><rotate>1 0 0 0.0</rotate><link name="root_floor_link" sid="root_floor_link" /></attachment_full></link></technique_common></kinematics_model></library_kinematics_models><library_articulated_systems><articulated_system id="Floor_kinematics"><kinematics><instance_kinematics_model sid="inst_Floor_kinematics_model" url="#Floor_kinematics_model"><newparam sid="Floor_kinematics@inst_Floor_kinematics_model"><SIDREF>Floor_kinematics/inst_Floor_kinematics_model</SIDREF></newparam><newparam sid="Floor_kinematics@inst_Floor_kinematics_model@inst_root_floor_joint@axis0"><SIDREF>Floor_kinematics/inst_Floor_kinematics_model/inst_root_floor_joint/axis0</SIDREF></newparam><newparam sid="Floor_kinematics@inst_Floor_kinematics_model@inst_root_floor_joint_value"><float>0.0</float></newparam></instance_kinematics_model><technique_common><axis_info axis="Floor_kinematics_model/inst_root_floor_joint/axis0" sid="inst_root_floor_joint_info"><active><bool>True</bool></active><locked><bool>False</bool></locked><limits><min><float>0.0</float></min><max><float>0.0</float></max></limits></axis_info></technique_common></kinematics></articulated_system><articulated_system id="Floor_motion"><motion><instance_articulated_system sid="inst_Floor_kinematics" url="#Floor_kinematics"><newparam sid="Floor_motion@Floor_kinematics@inst_Floor_kinematics_model"><SIDREF>Floor_kinematics/Floor_kinematics@inst_Floor_kinematics_model</SIDREF></newparam><newparam sid="Floor_motion@Floor_kinematics@inst_Floor_kinematics_model@inst_root_floor_joint@axis0"><SIDREF>Floor_kinematics/Floor_kinematics@inst_Floor_kinematics_model@inst_root_floor_joint@axis0</SIDREF></newparam><newparam sid="Floor_motion@Floor_kinematics@inst_Floor_kinematics_model@inst_root_floor_joint_value"><SIDREF>Floor_kinematics/Floor_kinematics@inst_Floor_kinematics_model@inst_root_floor_joint_value</SIDREF></newparam></instance_articulated_system><technique_common><axis_info axis="Floor_kinematics/inst_root_floor_joint_info"><speed><float>0.0</float></speed><acceleration><float>0.0</float></acceleration><deceleration><float>0.0</float></deceleration><jerk><float>0.0</float></jerk></axis_info></technique_common></motion><extra type="manipulator"><technique profile="OpenRAVE"><frame_origin link="Floor_kinematics_model/Floor_root_link" /><frame_origin link="Floor_kinematics_model/Floor_root_link" /><frame_tip link="Floor_kinematics_model/root_floor_link" /></technique></extra></articulated_system></library_articulated_systems><library_joints><joint id="root_floor_joint" name="root_floor_joint"><revolute sid="axis0"><axis>0 0 1</axis></revolute></joint></library_joints><library_physics_models><physics_model id="Floor_physics_model" /></library_physics_models><library_physics_scenes><physics_scene id="Floor_physics_scene"><instance_physics_model sid="inst_Floor_physics_model" url="#Floor_physics_model" /><technique_common /></physics_scene></library_physics_scenes><scene>
    <instance_visual_scene url="#Scene" />
  <instance_physics_scene url="#Floor_physics_scene" /><instance_kinematics_scene sid="inst_Floor_kinematics_scene" url="#Floor_kinematics_scene"><bind_kinematics_model node="Floor"><param>Floor_kinematics_scene@Floor_motion@Floor_kinematics@inst_Floor_kinematics_model</param></bind_kinematics_model><bind_joint_axis target="root_floor/transform"><axis><param>Floor_kinematics_scene@Floor_motion@Floor_kinematics@inst_Floor_kinematics_model@inst_root_floor_joint@axis0</param></axis><value><param>Floor_kinematics_scene@Floor_motion@Floor_kinematics@inst_Floor_kinematics_model@inst_root_floor_joint_value</param></value></bind_joint_axis></instance_kinematics_scene></scene>
</COLLADA>