#VRML V2.0 utf8


Group {
  children 
    Group {
      children [ 
        Group {
          children 
            Transform {
              translation -0 0 -0
              rotation 0 0 1  0
              scale 1 1 1
              scaleOrientation 0 0 1  0
              children 
                Transform {
                  translation 0.002099104 0.01195681 0.093884073
                  rotation -0.0050925333 0.99267715 0.12071792  0.084942065
                  scale 0.99999988 0.24750002 0.0049999999
                  scaleOrientation 0 0 1  0
                  children 
                    Shape {
                      appearance 
                      Appearance {
                        material 
                        Material {
                          diffuseColor 0.63999999 0.55871868 0.027091181

                        }

                      }
                      geometry 
                      IndexedFaceSet {
                        coord 
                        Coordinate {
                          point [ -1 -1 -1,
                              -1 1 -1,
                              1 1 -1,
                              1 -1 -1,
                              -1 -1 1,
                              -1 1 1,
                              1 1 1,
                              1 -1 1 ]

                        }
                        normal 
                        Normal {
                          vector [  ]

                        }
                        coordIndex [ 5, 1, 0, -1, 6, 2, 1, -1,
                            7, 3, 2, -1, 4, 0, 3, -1,
                            1, 2, 3, -1, 6, 5, 4, -1,
                            4, 5, 0, -1, 5, 6, 1, -1,
                            6, 7, 2, -1, 7, 4, 3, -1,
                            0, 1, 3, -1, 7, 6, 4 ]
                        ccw TRUE
                        solid FALSE
                        convex TRUE
                        creaseAngle 0

                      }

                    }

                }

            }

        },
          
        Group {
          children 
            Transform {
              translation -0 0 -0
              rotation 0 0 1  0
              scale 1 1 1
              scaleOrientation 0 0 1  0
              children 
                Transform {
                  translation -0.001690637 0.01191792 0.04904395
                  rotation -0.0050925328 0.99267721 0.12071797  0.084942065
                  scale 0.050000008 0.24750002 0.045000002
                  scaleOrientation 0 0 1  0
                  children 
                    Shape {
                      appearance 
                      Appearance {
                        material 
                        Material {
                          diffuseColor 0.32874399 0.2436343 0.1558415

                        }

                      }
                      geometry 
                      IndexedFaceSet {
                        coord 
                        Coordinate {
                          point [ -1 -1 -1,
                              -1 1 -1,
                              1 1 -1,
                              1 -1 -1,
                              -1 -1 1,
                              -1 1 1,
                              1 1 1,
                              1 -1 1 ]

                        }
                        normal 
                        Normal {
                          vector [  ]

                        }
                        coordIndex [ 5, 1, 0, -1, 6, 2, 1, -1,
                            7, 3, 2, -1, 4, 0, 3, -1,
                            1, 2, 3, -1, 6, 5, 4, -1,
                            4, 5, 0, -1, 5, 6, 1, -1,
                            6, 7, 2, -1, 7, 4, 3, -1,
                            0, 1, 3, -1, 7, 6, 4 ]
                        ccw TRUE
                        solid FALSE
                        convex TRUE
                        creaseAngle 0

                      }

                    }

                }

            }

        },
          
        Group {
          children 
            Transform {
              translation -0.97704363 0.2369753 0.18261281
              rotation 0 0 1  0
              scale 1 1 1
              scaleOrientation 0 0 1  0

            }

        },
          
        Group {
          children 
            Transform {
              translation 0.97256321 -0.21096469 0.02491533
              rotation 0 0 1  0
              scale 1 1 1
              scaleOrientation 0 0 1  0

            }

        },
          
        Group {
          children 
            Transform {
              translation 0.96748233 0.2588855 0.02164744
              rotation 0 0 1  0
              scale 1 1 1
              scaleOrientation 0 0 1  0

            }

        },
          
        Group {
          children 
            Transform {
              translation -0.97293532 -0.232219 0.1800134
              rotation 0 0 1  0
              scale 1 1 1
              scaleOrientation 0 0 1  0

            }

        } ]

    }

}
