#VRML V2.0 utf8

PROTO Header_Info [
field SFString vendor "Parametric Technology Corporation"
field SFString product "Pro/ENGINEER"
field SFString version ""
field SFString sceneFile ""]
{WorldInfo {}}

PROTO Node_Info [
field SFString node_type ""
field SFString node_name ""]
{WorldInfo {}}

PROTO Geom_Type [
field SFString geom_type_s "T_Empty"
field SFInt32 trg_qual 1]
{WorldInfo {}}

PROTO Member_Info [
field SFString member_name ""
field SFInt32 member_id 0
field SFString proe_name ""
field SFString proe_type_s  ""
field SFString expl_status_s "Vrml_Exp_Unknown"
field MFFloat drag_trf [] ]
{WorldInfo {}}

PROTO Model_Info [
field SFInt32 proe_id 524288
field SFString proe_type_s "Proe_Part"
field SFString proe_name "SPHERE"
field SFInt32 maj_rev -5
field SFInt32 min_rev  -5
field SFInt32 rev_num 110
field SFInt32 rev_num_cosm 5
field SFString inst_type_s "Inst_Type_Main"
field SFString generic_name "generic_name"
field SFFloat s_factor 39.3701
]
{WorldInfo {}}

Header_Info{
vendor "Parametric Technology Corporation"
product "Creo Parametric"
version "2"
}

DEF V_Model Anchor {
  url ""
  description "sphere.prt"
children [
Node_Info {
node_type "V_Model"
node_name "sphere.prt"
}
DEF Default Viewpoint {
description "Default"
position 0.0901879 0.0148772 -0.0462987
orientation -0.779612 0.361687 -0.511261 2.4715
fieldOfView 1.56951
}

DEF FRONT Viewpoint {
description "FRONT"
position 0 0 0.101311
orientation 0 0 1 0
fieldOfView 1.56959
}

DEF TOP Viewpoint {
description "TOP"
position 0 0.101311 0
orientation -1 0 0 1.5708
fieldOfView 1.56959
}

DEF RIGHT Viewpoint {
description "RIGHT"
position 0.101311 0 0
orientation 0 1 0 1.5708
fieldOfView 1.56959
}

DEF BACK Viewpoint {
description "BACK"
position 0 0 -0.101311
orientation 0 1 0 3.14159
fieldOfView 1.56959
}

DEF LEFT Viewpoint {
description "LEFT"
position -0.101311 0 0
orientation 0 -1 0 1.5708
fieldOfView 1.56959
}

Model_Info {
proe_id 524288
proe_type_s "Proe_Part"
proe_name "SPHERE"
maj_rev -5
min_rev  -5
rev_num 110
rev_num_cosm 5
inst_type_s "Inst_Type_Main"
generic_name ""
s_factor 39.3701
}

DEF Rep_0 Group {
 children [
Node_Info {
node_type "Rep"
node_name "Rep_0"
}
DEF Geom_0 Group {
children [
Node_Info {
node_type "Geom"
node_name "Geom_0"
}
Geom_Type {
geom_type_s "T_Polygons"
trg_qual 9
}

DEF Poly_Geom_Data Group {
children [
Node_Info {
node_type "Poly_Geom_Data"
node_name ""
}
DEF myShape_45 Group {
children [
Node_Info {
node_type "Poly_Surface"
node_name "Poly_Surf_45"
}
Shape {
geometry IndexedFaceSet {
ccw  TRUE
solid  TRUE
convex TRUE
coord DEF FaceC Coordinate {
point  [
0 -0.033 0,
-0.00132138 -0.03236591 0.00630091,
-0.00259198 -0.03048802 0.01235969,
-0.00376297 -0.02743849 0.01794349,
-0.00478935 -0.02333452 0.02283773,
-0.00563168 -0.01833381 0.02685433,
-0.00625759 -0.01262855 0.02983893,
-0.00664302 -0.00643798 0.03167684,
-0.00677317 0 0.03229743,
-0.00664302 0.00643798 0.03167684,
-0.00625759 0.01262855 0.02983893,
-0.00563168 0.01833381 0.02685433,
-0.00478935 0.02333452 0.02283773,
-0.00376297 0.02743849 0.01794349,
-0.00259198 0.03048802 0.01235969,
-0.00132138 0.03236591 0.00630091,
0 0.033 0,
0 0.03236591 0.00643798,
0 0.03048802 0.01262855,
0 0.02743849 0.01833381,
0 0.02333452 0.02333452,
0 0.01833381 0.02743849,
0 0.01262855 0.03048802,
0 0.00643798 0.03236591,
0 0 0.033,
0 -0.00643798 0.03236591,
0 -0.01262855 0.03048802,
0 -0.01833381 0.02743849,
0 -0.02333452 0.02333452,
0 -0.02743849 0.01833381,
0 -0.03048802 0.01262855,
0 -0.03236591 0.00643798,
-0.00260377 -0.03236591 0.00588795,
-0.00510748 -0.03048802 0.01154963,
-0.00741491 -0.02743849 0.01676746,
-0.00943739 -0.02333452 0.02134093,
-0.0110972 -0.01833381 0.02509428,
-0.01233055 -0.01262855 0.02788327,
-0.01309004 -0.00643798 0.02960072,
-0.01334649 0 0.03018063,
-0.01309004 0.00643798 0.02960072,
-0.01233055 0.01262855 0.02788327,
-0.0110972 0.01833381 0.02509428,
-0.00943739 0.02333452 0.02134093,
-0.00741491 0.02743849 0.01676746,
-0.00510748 0.03048802 0.01154963,
-0.00260377 0.03236591 0.00588795,
-0.00377214 -0.03236591 0.00521714,
-0.00739932 -0.03048802 0.01023378,
-0.01074214 -0.02743849 0.01485715,
-0.01367216 -0.02333452 0.01890957,
-0.01607675 -0.01833381 0.0222353,
-0.01786353 -0.01262855 0.02470655,
-0.01896383 -0.00643798 0.02622833,
-0.01933535 0 0.02674217,
-0.01896383 0.00643798 0.02622833,
-0.01786353 0.01262855 0.02470655,
-0.01607675 0.01833381 0.0222353,
-0.01367216 0.02333452 0.01890957,
-0.01074214 0.02743849 0.01485715,
-0.00739932 0.03048802 0.01023378,
-0.00377214 0.03236591 0.00521714,
-0.00477531 -0.03236591 0.00431786,
-0.00936712 -0.03048802 0.00846978,
-0.01359895 -0.02743849 0.01229622,
-0.01730819 -0.02333452 0.01565012,
-0.02035227 -0.01833381 0.0184026,
-0.02261424 -0.01262855 0.02044787,
-0.02400715 -0.00643798 0.02170735,
-0.02447747 0 0.02213262,
-0.02400715 0.00643798 0.02170735,
-0.02261424 0.01262855 0.02044787,
-0.02035227 0.01833381 0.0184026,
-0.01730819 0.02333452 0.01565012,
-0.01359895 0.02743849 0.01229622,
-0.00936712 0.03048802 0.00846978,
-0.00477531 0.03236591 0.00431786,
-0.00556937 -0.03236591 0.00322949,
-0.01092472 -0.03048802 0.00633488,
-0.01586024 -0.02743849 0.00919682,
-0.02018626 -0.02333452 0.01170533,
-0.02373653 -0.01833381 0.01376401,
-0.02637462 -0.01262855 0.01529375,
-0.02799914 -0.00643798 0.01623576,
-0.02854768 0 0.01655384,
-0.02799914 0.00643798 0.01623576,
-0.02637462 0.01262855 0.01529375,
-0.02373653 0.01833381 0.01376401,
-0.02018626 0.02333452 0.01170533,
-0.01586024 0.02743849 0.00919682,
-0.01092472 0.03048802 0.00633488,
-0.00556937 0.03236591 0.00322949,
-0.00611954 -0.03236591 0.0019997,
-0.01200391 -0.03048802 0.00392255,
-0.01742697 -0.02743849 0.00569466,
-0.02218033 -0.02333452 0.00724793,
-0.02608131 -0.01833381 0.00852267,
-0.02898 -0.01262855 0.00946988,
-0.03076501 -0.00643798 0.01005317,
-0.03136773 0 0.01025013,
-0.03076501 0.00643798 0.01005317,
-0.02898 0.01262855 0.00946988,
-0.02608131 0.01833381 0.00852267,
-0.02218033 0.02333452 0.00724793,
-0.01742697 0.02743849 0.00569466,
-0.01200391 0.03048802 0.00392255,
-0.00611954 0.03236591 0.0019997,
-0.00640171 -0.03236591 0.00068233,
-0.01255742 -0.03048802 0.00133845,
-0.01823055 -0.02743849 0.00194313,
-0.02320309 -0.02333452 0.00247314,
-0.02728395 -0.01833381 0.0029081,
-0.0303163 -0.01262855 0.00323131,
-0.03218361 -0.00643798 0.00343034,
-0.03281412 0 0.00349755,
-0.03218361 0.00643798 0.00343034,
-0.0303163 0.01262855 0.00323131,
-0.02728395 0.01833381 0.0029081,
-0.02320309 0.02333452 0.00247314,
-0.01823055 0.02743849 0.00194313,
-0.01255742 0.03048802 0.00133845,
-0.00640171 0.03236591 0.00068233,
-0.00640355 -0.03236591 -0.0006649,
-0.01256102 -0.03048802 -0.00130425,
-0.01823577 -0.02743849 -0.00189349,
-0.02320974 -0.02333452 -0.00240995,
-0.02729176 -0.01833381 -0.00283381,
-0.03032498 -0.01262855 -0.00314876,
-0.03219283 -0.00643798 -0.0033427,
-0.03282353 0 -0.00340819,
-0.03219283 0.00643798 -0.0033427,
-0.03032498 0.01262855 -0.00314876,
-0.02729176 0.01833381 -0.00283381,
-0.02320974 0.02333452 -0.00240995,
-0.01823577 0.02743849 -0.00189349,
-0.01256102 0.03048802 -0.00130425,
-0.00640355 0.03236591 -0.0006649,
-0.00612496 -0.03236591 -0.00198303,
-0.01201454 -0.03048802 -0.00388985,
-0.01744242 -0.02743849 -0.00564719,
-0.02219998 -0.02333452 -0.00718752,
-0.02610442 -0.01833381 -0.00845162,
-0.02900568 -0.01262855 -0.00939094,
-0.03079227 -0.00643798 -0.00996937,
-0.03139552 0 -0.01016468,
-0.03079227 0.00643798 -0.00996937,
-0.02900568 0.01262855 -0.00939094,
-0.02610442 0.01833381 -0.00845162,
-0.02219998 0.02333452 -0.00718752,
-0.01744242 0.02743849 -0.00564719,
-0.01201454 0.03048802 -0.00388985,
-0.00612496 0.03236591 -0.00198303,
-0.00557814 -0.03236591 -0.00321431,
-0.01094193 -0.03048802 -0.00630511,
-0.01588522 -0.02743849 -0.0091536,
-0.02021805 -0.02333452 -0.01165032,
-0.02377392 -0.01833381 -0.01369933,
-0.02641616 -0.01262855 -0.01522188,
-0.02804325 -0.00643798 -0.01615946,
-0.02859265 0 -0.01647605,
-0.02804325 0.00643798 -0.01615946,
-0.02641616 0.01262855 -0.01522188,
-0.02377392 0.01833381 -0.01369933,
-0.02021805 0.02333452 -0.01165032,
-0.01588522 0.02743849 -0.0091536,
-0.01094193 0.03048802 -0.00630511,
-0.00557814 0.03236591 -0.00321431,
-0.00478705 -0.03236591 -0.00430484,
-0.00939015 -0.03048802 -0.00844425,
-0.01363238 -0.02743849 -0.01225915,
-0.01735073 -0.02333452 -0.01560294,
-0.0204023 -0.01833381 -0.01834712,
-0.02266983 -0.01262855 -0.02038623,
-0.02406616 -0.00643798 -0.0216419,
-0.02453764 0 -0.02206589,
-0.02406616 0.00643798 -0.0216419,
-0.02266983 0.01262855 -0.02038623,
-0.0204023 0.01833381 -0.01834712,
-0.01735073 0.02333452 -0.01560294,
-0.01363238 0.02743849 -0.01225915,
-0.00939015 0.03048802 -0.00844425,
-0.00478705 0.03236591 -0.00430484,
-0.00378633 -0.03236591 -0.00520685,
-0.00742715 -0.03048802 -0.0102136,
-0.01078255 -0.02743849 -0.01482785,
-0.01372359 -0.02333452 -0.01887228,
-0.01613724 -0.01833381 -0.02219145,
-0.01793074 -0.01262855 -0.02465782,
-0.01903517 -0.00643798 -0.0261766,
-0.01940809 0 -0.02668943,
-0.01903517 0.00643798 -0.0261766,
-0.01793074 0.01262855 -0.02465782,
-0.01613724 0.01833381 -0.02219145,
-0.01372359 0.02333452 -0.01887228,
-0.01078255 0.02743849 -0.01482785,
-0.00742715 0.03048802 -0.0102136,
-0.00378633 0.03236591 -0.00520685,
-0.00261979 -0.03236591 -0.00588083,
-0.00513891 -0.03048802 -0.01153568,
-0.00746054 -0.02743849 -0.01674721,
-0.00949547 -0.02333452 -0.02131516,
-0.01116549 -0.01833381 -0.02506397,
-0.01240643 -0.01262855 -0.02784959,
-0.01317059 -0.00643798 -0.02956497,
-0.01342862 0 -0.03014418,
-0.01317059 0.00643798 -0.02956497,
-0.01240643 0.01262855 -0.02784959,
-0.01116549 0.01833381 -0.02506397,
-0.00949547 0.02333452 -0.02131516,
-0.00746054 0.02743849 -0.01674721,
-0.00513891 0.03048802 -0.01153568,
-0.00261979 0.03236591 -0.00588083,
-0.00133853 -0.03236591 -0.00629729,
-0.00262562 -0.03048802 -0.01235258,
-0.00381181 -0.02743849 -0.01793317,
-0.00485152 -0.02333452 -0.0228246,
-0.00570478 -0.01833381 -0.02683889,
-0.00633881 -0.01262855 -0.02982178,
-0.00672925 -0.00643798 -0.03165864,
-0.00686108 0 -0.03227886,
-0.00672925 0.00643798 -0.03165864,
-0.00633881 0.01262855 -0.02982178,
-0.00570478 0.01833381 -0.02683889,
-0.00485152 0.02333452 -0.0228246,
-0.00381181 0.02743849 -0.01793317,
-0.00262562 0.03048802 -0.01235258,
-0.00133853 0.03236591 -0.00629729,
0 -0.03236591 -0.00643798,
0 -0.03048802 -0.01262855,
0 -0.02743849 -0.01833381,
0 -0.02333452 -0.02333452,
0 -0.01833381 -0.02743849,
0 -0.01262855 -0.03048802,
0 -0.00643798 -0.03236591,
0 0 -0.033,
0 0.00643798 -0.03236591,
0 0.01262855 -0.03048802,
0 0.01833381 -0.02743849,
0 0.02333452 -0.02333452,
0 0.02743849 -0.01833381,
0 0.03048802 -0.01262855,
0 0.03236591 -0.00643798,
0 0.03226676 -0.00676484,
0.00132138 0.03229743 -0.00664302,
0.00259198 0.03229743 -0.00625759,
0.00376297 0.03229743 -0.00563168,
0.00478935 0.03229743 -0.00478935,
0.00563168 0.03229743 -0.00376297,
0.00625759 0.03229743 -0.00259198,
0.00664302 0.03229743 -0.00132138,
0.00677317 0.03229743 0,
0.00664302 0.03229743 0.00132138,
0.00625759 0.03229743 0.00259198,
0.00563168 0.03229743 0.00376297,
0.00478935 0.03229743 0.00478935,
0.00376297 0.03229743 0.00563168,
0.00259198 0.03229743 0.00625759,
0.00132138 0.03229743 0.00664302,
0 0.03226676 0.00676484,
0 -0.03224072 0.00685068,
0.00133853 -0.03227886 0.00672925,
0.00262562 -0.03227886 0.00633881,
0.00381181 -0.03227886 0.00570478,
0.00485152 -0.03227886 0.00485152,
0.00570478 -0.03227886 0.00381181,
0.00633881 -0.03227886 0.00262562,
0.00672925 -0.03227886 0.00133853,
0.00686108 -0.03227886 0,
0.00672925 -0.03227886 -0.00133853,
0.00633881 -0.03227886 -0.00262562,
0.00570478 -0.03227886 -0.00381181,
0.00485152 -0.03227886 -0.00485152,
0.00381181 -0.03227886 -0.00570478,
0.00262562 -0.03227886 -0.00633881,
0.00133853 -0.03227886 -0.00672925,
0 -0.03224072 -0.00685068,
0 -0.03007816 0.01339534,
0.00261979 -0.03014418 0.01317059,
0.00513891 -0.03014418 0.01240643,
0.00746054 -0.03014418 0.01116549,
0.00949547 -0.03014418 0.00949547,
0.01116549 -0.03014418 0.00746054,
0.01240643 -0.03014418 0.00513891,
0.01317059 -0.03014418 0.00261979,
0.01342862 -0.03014418 0,
0.01317059 -0.03014418 -0.00261979,
0.01240643 -0.03014418 -0.00513891,
0.01116549 -0.03014418 -0.00746054,
0.00949547 -0.03014418 -0.00949547,
0.00746054 -0.03014418 -0.01116549,
0.00513891 -0.03014418 -0.01240643,
0.00261979 -0.03014418 -0.01317059,
0 -0.03007816 -0.01339534,
0 -0.02660894 0.01934462,
0.00378633 -0.02668943 0.01903517,
0.00742715 -0.02668943 0.01793074,
0.01078255 -0.02668943 0.01613724,
0.01372359 -0.02668943 0.01372359,
0.01613724 -0.02668943 0.01078255,
0.01793074 -0.02668943 0.00742715,
0.01903517 -0.02668943 0.00378633,
0.01940809 -0.02668943 0,
0.01903517 -0.02668943 -0.00378633,
0.01793074 -0.02668943 -0.00742715,
0.01613724 -0.02668943 -0.01078255,
0.01372359 -0.02668943 -0.01372359,
0.01078255 -0.02668943 -0.01613724,
0.00742715 -0.02668943 -0.01793074,
0.00378633 -0.02668943 -0.01903517,
0 -0.02660894 -0.01934462,
0 -0.021985 0.02444204,
0.00478705 -0.02206589 0.02406616,
0.00939015 -0.02206589 0.02266983,
0.01363238 -0.02206589 0.0204023,
0.01735073 -0.02206589 0.01735073,
0.0204023 -0.02206589 0.01363238,
0.02266983 -0.02206589 0.00939015,
0.02406616 -0.02206589 0.00478705,
0.02453764 -0.02206589 0,
0.02406616 -0.02206589 -0.00478705,
0.02266983 -0.02206589 -0.00939015,
0.0204023 -0.02206589 -0.01363238,
0.01735073 -0.02206589 -0.01735073,
0.01363238 -0.02206589 -0.0204023,
0.00939015 -0.02206589 -0.02266983,
0.00478705 -0.02206589 -0.02406616,
0 -0.021985 -0.02444204,
0 -0.01640772 0.02846801,
0.00557814 -0.01647605 0.02804325,
0.01094193 -0.01647605 0.02641616,
0.01588522 -0.01647605 0.02377392,
0.02021805 -0.01647605 0.02021805,
0.02377392 -0.01647605 0.01588522,
0.02641616 -0.01647605 0.01094193,
0.02804325 -0.01647605 0.00557814,
0.02859265 -0.01647605 0,
0.02804325 -0.01647605 -0.00557814,
0.02641616 -0.01647605 -0.01094193,
0.02377392 -0.01647605 -0.01588522,
0.02021805 -0.01647605 -0.02021805,
0.01588522 -0.01647605 -0.02377392,
0.01094193 -0.01647605 -0.02641616,
0.00557814 -0.01647605 -0.02804325,
0 -0.01640772 -0.02846801,
0 -0.0101193 0.03124919,
0.00612496 -0.01016468 0.03079227,
0.01201454 -0.01016468 0.02900568,
0.01744242 -0.01016468 0.02610442,
0.02219998 -0.01016468 0.02219998,
0.02610442 -0.01016468 0.01744242,
0.02900568 -0.01016468 0.01201454,
0.03079227 -0.01016468 0.00612496,
0.03139552 -0.01016468 0,
0.03079227 -0.01016468 -0.00612496,
0.02900568 -0.01016468 -0.01201454,
0.02610442 -0.01016468 -0.01744242,
0.02219998 -0.01016468 -0.02219998,
0.01744242 -0.01016468 -0.02610442,
0.01201454 -0.01016468 -0.02900568,
0.00612496 -0.01016468 -0.03079227,
0 -0.0101193 -0.03124919,
0 -0.00339238 0.03266587,
0.00640355 -0.00340819 0.03219283,
0.01256102 -0.00340819 0.03032498,
0.01823577 -0.00340819 0.02729176,
0.02320974 -0.00340819 0.02320974,
0.02729176 -0.00340819 0.01823577,
0.03032498 -0.00340819 0.01256102,
0.03219283 -0.00340819 0.00640355,
0.03282353 -0.00340819 0,
0.03219283 -0.00340819 -0.00640355,
0.03032498 -0.00340819 -0.01256102,
0.02729176 -0.00340819 -0.01823577,
0.02320974 -0.00340819 -0.02320974,
0.01823577 -0.00340819 -0.02729176,
0.01256102 -0.00340819 -0.03032498,
0.00640355 -0.00340819 -0.03219283,
0 -0.00339238 -0.03266587,
0 0.00348165 0.03265708,
0.00640171 0.00349755 0.03218361,
0.01255742 0.00349755 0.0303163,
0.01823055 0.00349755 0.02728395,
0.02320309 0.00349755 0.02320309,
0.02728395 0.00349755 0.01823055,
0.0303163 0.00349755 0.01255742,
0.03218361 0.00349755 0.00640171,
0.03281412 0.00349755 0,
0.03218361 0.00349755 -0.00640171,
0.0303163 0.00349755 -0.01255742,
0.02728395 0.00349755 -0.01823055,
0.02320309 0.00349755 -0.02320309,
0.01823055 0.00349755 -0.02728395,
0.01255742 0.00349755 -0.0303163,
0.00640171 0.00349755 -0.03218361,
0 0.00348165 -0.03265708,
0 0.01020515 0.03122315,
0.00611954 0.01025013 0.03076501,
0.01200391 0.01025013 0.02898,
0.01742697 0.01025013 0.02608131,
0.02218033 0.01025013 0.02218033,
0.02608131 0.01025013 0.01742697,
0.02898 0.01025013 0.01200391,
0.03076501 0.01025013 0.00611954,
0.03136773 0.01025013 0,
0.03076501 0.01025013 -0.00611954,
0.02898 0.01025013 -0.01200391,
0.02608131 0.01025013 -0.01742697,
0.02218033 0.01025013 -0.02218033,
0.01742697 0.01025013 -0.02608131,
0.01200391 0.01025013 -0.02898,
0.00611954 0.01025013 -0.03076501,
0 0.01020515 -0.03122315,
0 0.01648683 0.02842573,
0.00556937 0.01655384 0.02799914,
0.01092472 0.01655384 0.02637462,
0.01586024 0.01655384 0.02373653,
0.02018626 0.01655384 0.02018626,
0.02373653 0.01655384 0.01586024,
0.02637462 0.01655384 0.01092472,
0.02799914 0.01655384 0.00556937,
0.02854768 0.01655384 0,
0.02799914 0.01655384 -0.00556937,
0.02637462 0.01655384 -0.01092472,
0.02373653 0.01655384 -0.01586024,
0.02018626 0.01655384 -0.02018626,
0.01586024 0.01655384 -0.02373653,
0.01092472 0.01655384 -0.02637462,
0.00556937 0.01655384 -0.02799914,
0 0.01648683 -0.02842573,
0 0.02205434 0.02438514,
0.00477531 0.02213262 0.02400715,
0.00936712 0.02213262 0.02261424,
0.01359895 0.02213262 0.02035227,
0.01730819 0.02213262 0.01730819,
0.02035227 0.02213262 0.01359895,
0.02261424 0.02213262 0.00936712,
0.02400715 0.02213262 0.00477531,
0.02447747 0.02213262 0,
0.02400715 0.02213262 -0.00477531,
0.02261424 0.02213262 -0.00936712,
0.02035227 0.02213262 -0.01359895,
0.01730819 0.02213262 -0.01730819,
0.01359895 0.02213262 -0.02035227,
0.00936712 0.02213262 -0.02261424,
0.00477531 0.02213262 -0.02400715,
0 0.02205434 -0.02438514,
0 0.02666585 0.01927528,
0.00377214 0.02674217 0.01896383,
0.00739932 0.02674217 0.01786353,
0.01074214 0.02674217 0.01607675,
0.01367216 0.02674217 0.01367216,
0.01607675 0.02674217 0.01074214,
0.01786353 0.02674217 0.00739932,
0.01896383 0.02674217 0.00377214,
0.01933535 0.02674217 0,
0.01896383 0.02674217 -0.00377214,
0.01786353 0.02674217 -0.00739932,
0.01607675 0.02674217 -0.01074214,
0.01367216 0.02674217 -0.01367216,
0.01074214 0.02674217 -0.01607675,
0.00739932 0.02674217 -0.01786353,
0.00377214 0.02674217 -0.01896383,
0 0.02666585 -0.01927528,
0 0.03012045 0.01331622,
0.00260377 0.03018063 0.01309004,
0.00510748 0.03018063 0.01233055,
0.00741491 0.03018063 0.0110972,
0.00943739 0.03018063 0.00943739,
0.0110972 0.03018063 0.00741491,
0.01233055 0.03018063 0.00510748,
0.01309004 0.03018063 0.00260377,
0.01334649 0.03018063 0,
0.01309004 0.03018063 -0.00260377,
0.01233055 0.03018063 -0.00510748,
0.0110972 0.03018063 -0.00741491,
0.00943739 0.03018063 -0.00943739,
0.00741491 0.03018063 -0.0110972,
0.00510748 0.03018063 -0.01233055,
0.00260377 0.03018063 -0.01309004,
0 0.03012045 -0.01331622,
]}
normal DEF FaceN Normal {
vector  [
0 -1 0,
-0.04 -0.98 0.19,
-0.078 -0.923 0.374,
-0.114 -0.831 0.543,
-0.145 -0.707 0.692,
-0.17 -0.555 0.813,
-0.189 -0.382 0.904,
-0.201 -0.195 0.959,
-0.205 0 0.978,
-0.201 0.195 0.959,
-0.189 0.382 0.904,
-0.17 0.555 0.813,
-0.145 0.707 0.692,
-0.114 0.831 0.543,
-0.078 0.923 0.374,
-0.04 0.98 0.19,
0 1 0,
0 0.98 0.195,
0 0.923 0.382,
0 0.831 0.555,
0 0.707 0.707,
0 0.555 0.831,
0 0.382 0.923,
0 0.195 0.98,
0 0 1,
0 -0.195 0.98,
0 -0.382 0.923,
0 -0.555 0.831,
0 -0.707 0.707,
0 -0.831 0.555,
0 -0.923 0.382,
0 -0.98 0.195,
-0.078 -0.98 0.178,
-0.154 -0.923 0.349,
-0.224 -0.831 0.508,
-0.285 -0.707 0.646,
-0.336 -0.555 0.76,
-0.373 -0.382 0.844,
-0.396 -0.195 0.896,
-0.404 0 0.914,
-0.396 0.195 0.896,
-0.373 0.382 0.844,
-0.336 0.555 0.76,
-0.285 0.707 0.646,
-0.224 0.831 0.508,
-0.154 0.923 0.349,
-0.078 0.98 0.178,
-0.114 -0.98 0.158,
-0.224 -0.923 0.31,
-0.325 -0.831 0.45,
-0.414 -0.707 0.573,
-0.487 -0.555 0.673,
-0.541 -0.382 0.748,
-0.574 -0.195 0.794,
-0.585 0 0.81,
-0.574 0.195 0.794,
-0.541 0.382 0.748,
-0.487 0.555 0.673,
-0.414 0.707 0.573,
-0.325 0.831 0.45,
-0.224 0.923 0.31,
-0.114 0.98 0.158,
-0.144 -0.98 0.13,
-0.283 -0.923 0.256,
-0.412 -0.831 0.372,
-0.524 -0.707 0.474,
-0.616 -0.555 0.557,
-0.685 -0.382 0.619,
-0.727 -0.195 0.657,
-0.741 0 0.67,
-0.727 0.195 0.657,
-0.685 0.382 0.619,
-0.616 0.555 0.557,
-0.524 0.707 0.474,
-0.412 0.831 0.372,
-0.283 0.923 0.256,
-0.144 0.98 0.13,
-0.168 -0.98 0.097,
-0.331 -0.923 0.191,
-0.48 -0.831 0.278,
-0.611 -0.707 0.354,
-0.719 -0.555 0.417,
-0.799 -0.382 0.463,
-0.848 -0.195 0.491,
-0.865 0 0.501,
-0.848 0.195 0.491,
-0.799 0.382 0.463,
-0.719 0.555 0.417,
-0.611 0.707 0.354,
-0.48 0.831 0.278,
-0.331 0.923 0.191,
-0.168 0.98 0.097,
-0.185 -0.98 0.06,
-0.363 -0.923 0.118,
-0.528 -0.831 0.172,
-0.672 -0.707 0.219,
-0.79 -0.555 0.258,
-0.878 -0.382 0.286,
-0.932 -0.195 0.304,
-0.95 0 0.31,
-0.932 0.195 0.304,
-0.878 0.382 0.286,
-0.79 0.555 0.258,
-0.672 0.707 0.219,
-0.528 0.831 0.172,
-0.363 0.923 0.118,
-0.185 0.98 0.06,
-0.193 -0.98 0.02,
-0.38 -0.923 0.04,
-0.552 -0.831 0.058,
-0.703 -0.707 0.074,
-0.826 -0.555 0.088,
-0.918 -0.382 0.097,
-0.975 -0.195 0.103,
-0.994 0 0.105,
-0.975 0.195 0.103,
-0.918 0.382 0.097,
-0.826 0.555 0.088,
-0.703 0.707 0.074,
-0.552 0.831 0.058,
-0.38 0.923 0.04,
-0.193 0.98 0.02,
-0.194 -0.98 -0.02,
-0.38 -0.923 -0.039,
-0.552 -0.831 -0.057,
-0.703 -0.707 -0.073,
-0.827 -0.555 -0.085,
-0.918 -0.382 -0.095,
-0.975 -0.195 -0.101,
-0.994 0 -0.103,
-0.975 0.195 -0.101,
-0.918 0.382 -0.095,
-0.827 0.555 -0.085,
-0.703 0.707 -0.073,
-0.552 0.831 -0.057,
-0.38 0.923 -0.039,
-0.194 0.98 -0.02,
-0.185 -0.98 -0.06,
-0.364 -0.923 -0.117,
-0.528 -0.831 -0.171,
-0.672 -0.707 -0.217,
-0.791 -0.555 -0.256,
-0.878 -0.382 -0.284,
-0.933 -0.195 -0.302,
-0.951 0 -0.308,
-0.933 0.195 -0.302,
-0.878 0.382 -0.284,
-0.791 0.555 -0.256,
-0.672 0.707 -0.217,
-0.528 0.831 -0.171,
-0.364 0.923 -0.117,
-0.185 0.98 -0.06,
-0.169 -0.98 -0.097,
-0.331 -0.923 -0.191,
-0.481 -0.831 -0.277,
-0.612 -0.707 -0.353,
-0.72 -0.555 -0.415,
-0.8 -0.382 -0.461,
-0.849 -0.195 -0.489,
-0.866 0 -0.499,
-0.849 0.195 -0.489,
-0.8 0.382 -0.461,
-0.72 0.555 -0.415,
-0.612 0.707 -0.353,
-0.481 0.831 -0.277,
-0.331 0.923 -0.191,
-0.169 0.98 -0.097,
-0.145 -0.98 -0.13,
-0.284 -0.923 -0.255,
-0.413 -0.831 -0.371,
-0.525 -0.707 -0.472,
-0.618 -0.555 -0.555,
-0.686 -0.382 -0.617,
-0.729 -0.195 -0.655,
-0.743 0 -0.668,
-0.729 0.195 -0.655,
-0.686 0.382 -0.617,
-0.618 0.555 -0.555,
-0.525 0.707 -0.472,
-0.413 0.831 -0.371,
-0.284 0.923 -0.255,
-0.145 0.98 -0.13,
-0.114 -0.98 -0.157,
-0.225 -0.923 -0.309,
-0.326 -0.831 -0.449,
-0.415 -0.707 -0.571,
-0.489 -0.555 -0.672,
-0.543 -0.382 -0.747,
-0.576 -0.195 -0.793,
-0.588 0 -0.808,
-0.576 0.195 -0.793,
-0.543 0.382 -0.747,
-0.489 0.555 -0.672,
-0.415 0.707 -0.571,
-0.326 0.831 -0.449,
-0.225 0.923 -0.309,
-0.114 0.98 -0.157,
-0.079 -0.98 -0.178,
-0.155 -0.923 -0.349,
-0.226 -0.831 -0.507,
-0.287 -0.707 -0.645,
-0.338 -0.555 -0.759,
-0.375 -0.382 -0.843,
-0.399 -0.195 -0.895,
-0.406 0 -0.913,
-0.399 0.195 -0.895,
-0.375 0.382 -0.843,
-0.338 0.555 -0.759,
-0.287 0.707 -0.645,
-0.226 0.831 -0.507,
-0.155 0.923 -0.349,
-0.079 0.98 -0.178,
-0.04 -0.98 -0.19,
-0.079 -0.923 -0.374,
-0.115 -0.831 -0.543,
-0.147 -0.707 -0.691,
-0.172 -0.555 -0.813,
-0.192 -0.382 -0.903,
-0.203 -0.195 -0.959,
-0.207 0 -0.978,
-0.203 0.195 -0.959,
-0.192 0.382 -0.903,
-0.172 0.555 -0.813,
-0.147 0.707 -0.691,
-0.115 0.831 -0.543,
-0.079 0.923 -0.374,
-0.04 0.98 -0.19,
0 -0.98 -0.195,
0 -0.923 -0.382,
0 -0.831 -0.555,
0 -0.707 -0.707,
0 -0.555 -0.831,
0 -0.382 -0.923,
0 -0.195 -0.98,
0 0 -1,
0 0.195 -0.98,
0 0.382 -0.923,
0 0.555 -0.831,
0 0.707 -0.707,
0 0.831 -0.555,
0 0.923 -0.382,
0 0.98 -0.195,
0 0.978 -0.205,
0.04 0.978 -0.201,
0.078 0.978 -0.189,
0.114 0.978 -0.17,
0.145 0.978 -0.145,
0.17 0.978 -0.114,
0.189 0.978 -0.078,
0.201 0.978 -0.04,
0.205 0.978 0,
0.201 0.978 0.04,
0.189 0.978 0.078,
0.17 0.978 0.114,
0.145 0.978 0.145,
0.114 0.978 0.17,
0.078 0.978 0.189,
0.04 0.978 0.201,
0 0.978 0.205,
0 -0.978 0.207,
0.04 -0.978 0.203,
0.079 -0.978 0.192,
0.115 -0.978 0.172,
0.147 -0.978 0.147,
0.172 -0.978 0.115,
0.192 -0.978 0.079,
0.203 -0.978 0.04,
0.207 -0.978 0,
0.203 -0.978 -0.04,
0.192 -0.978 -0.079,
0.172 -0.978 -0.115,
0.147 -0.978 -0.147,
0.115 -0.978 -0.172,
0.079 -0.978 -0.192,
0.04 -0.978 -0.203,
0 -0.978 -0.207,
0 -0.913 0.406,
0.079 -0.913 0.399,
0.155 -0.913 0.375,
0.226 -0.913 0.338,
0.287 -0.913 0.287,
0.338 -0.913 0.226,
0.375 -0.913 0.155,
0.399 -0.913 0.079,
0.406 -0.913 0,
0.399 -0.913 -0.079,
0.375 -0.913 -0.155,
0.338 -0.913 -0.226,
0.287 -0.913 -0.287,
0.226 -0.913 -0.338,
0.155 -0.913 -0.375,
0.079 -0.913 -0.399,
0 -0.913 -0.406,
0 -0.808 0.588,
0.114 -0.808 0.576,
0.225 -0.808 0.543,
0.326 -0.808 0.489,
0.415 -0.808 0.415,
0.489 -0.808 0.326,
0.543 -0.808 0.225,
0.576 -0.808 0.114,
0.588 -0.808 0,
0.576 -0.808 -0.114,
0.543 -0.808 -0.225,
0.489 -0.808 -0.326,
0.415 -0.808 -0.415,
0.326 -0.808 -0.489,
0.225 -0.808 -0.543,
0.114 -0.808 -0.576,
0 -0.808 -0.588,
0 -0.668 0.743,
0.145 -0.668 0.729,
0.284 -0.668 0.686,
0.413 -0.668 0.618,
0.525 -0.668 0.525,
0.618 -0.668 0.413,
0.686 -0.668 0.284,
0.729 -0.668 0.145,
0.743 -0.668 0,
0.729 -0.668 -0.145,
0.686 -0.668 -0.284,
0.618 -0.668 -0.413,
0.525 -0.668 -0.525,
0.413 -0.668 -0.618,
0.284 -0.668 -0.686,
0.145 -0.668 -0.729,
0 -0.668 -0.743,
0 -0.499 0.866,
0.169 -0.499 0.849,
0.331 -0.499 0.8,
0.481 -0.499 0.72,
0.612 -0.499 0.612,
0.72 -0.499 0.481,
0.8 -0.499 0.331,
0.849 -0.499 0.169,
0.866 -0.499 0,
0.849 -0.499 -0.169,
0.8 -0.499 -0.331,
0.72 -0.499 -0.481,
0.612 -0.499 -0.612,
0.481 -0.499 -0.72,
0.331 -0.499 -0.8,
0.169 -0.499 -0.849,
0 -0.499 -0.866,
0 -0.308 0.951,
0.185 -0.308 0.933,
0.364 -0.308 0.878,
0.528 -0.308 0.791,
0.672 -0.308 0.672,
0.791 -0.308 0.528,
0.878 -0.308 0.364,
0.933 -0.308 0.185,
0.951 -0.308 0,
0.933 -0.308 -0.185,
0.878 -0.308 -0.364,
0.791 -0.308 -0.528,
0.672 -0.308 -0.672,
0.528 -0.308 -0.791,
0.364 -0.308 -0.878,
0.185 -0.308 -0.933,
0 -0.308 -0.951,
0 -0.103 0.994,
0.194 -0.103 0.975,
0.38 -0.103 0.918,
0.552 -0.103 0.827,
0.703 -0.103 0.703,
0.827 -0.103 0.552,
0.918 -0.103 0.38,
0.975 -0.103 0.194,
0.994 -0.103 0,
0.975 -0.103 -0.194,
0.918 -0.103 -0.38,
0.827 -0.103 -0.552,
0.703 -0.103 -0.703,
0.552 -0.103 -0.827,
0.38 -0.103 -0.918,
0.194 -0.103 -0.975,
0 -0.103 -0.994,
0 0.105 0.994,
0.193 0.105 0.975,
0.38 0.105 0.918,
0.552 0.105 0.826,
0.703 0.105 0.703,
0.826 0.105 0.552,
0.918 0.105 0.38,
0.975 0.105 0.193,
0.994 0.105 0,
0.975 0.105 -0.193,
0.918 0.105 -0.38,
0.826 0.105 -0.552,
0.703 0.105 -0.703,
0.552 0.105 -0.826,
0.38 0.105 -0.918,
0.193 0.105 -0.975,
0 0.105 -0.994,
0 0.31 0.95,
0.185 0.31 0.932,
0.363 0.31 0.878,
0.528 0.31 0.79,
0.672 0.31 0.672,
0.79 0.31 0.528,
0.878 0.31 0.363,
0.932 0.31 0.185,
0.95 0.31 0,
0.932 0.31 -0.185,
0.878 0.31 -0.363,
0.79 0.31 -0.528,
0.672 0.31 -0.672,
0.528 0.31 -0.79,
0.363 0.31 -0.878,
0.185 0.31 -0.932,
0 0.31 -0.95,
0 0.501 0.865,
0.168 0.501 0.848,
0.331 0.501 0.799,
0.48 0.501 0.719,
0.611 0.501 0.611,
0.719 0.501 0.48,
0.799 0.501 0.331,
0.848 0.501 0.168,
0.865 0.501 0,
0.848 0.501 -0.168,
0.799 0.501 -0.331,
0.719 0.501 -0.48,
0.611 0.501 -0.611,
0.48 0.501 -0.719,
0.331 0.501 -0.799,
0.168 0.501 -0.848,
0 0.501 -0.865,
0 0.67 0.741,
0.144 0.67 0.727,
0.283 0.67 0.685,
0.412 0.67 0.616,
0.524 0.67 0.524,
0.616 0.67 0.412,
0.685 0.67 0.283,
0.727 0.67 0.144,
0.741 0.67 0,
0.727 0.67 -0.144,
0.685 0.67 -0.283,
0.616 0.67 -0.412,
0.524 0.67 -0.524,
0.412 0.67 -0.616,
0.283 0.67 -0.685,
0.144 0.67 -0.727,
0 0.67 -0.741,
0 0.81 0.585,
0.114 0.81 0.574,
0.224 0.81 0.541,
0.325 0.81 0.487,
0.414 0.81 0.414,
0.487 0.81 0.325,
0.541 0.81 0.224,
0.574 0.81 0.114,
0.585 0.81 0,
0.574 0.81 -0.114,
0.541 0.81 -0.224,
0.487 0.81 -0.325,
0.414 0.81 -0.414,
0.325 0.81 -0.487,
0.224 0.81 -0.541,
0.114 0.81 -0.574,
0 0.81 -0.585,
0 0.914 0.404,
0.078 0.914 0.396,
0.154 0.914 0.373,
0.224 0.914 0.336,
0.285 0.914 0.285,
0.336 0.914 0.224,
0.373 0.914 0.154,
0.396 0.914 0.078,
0.404 0.914 0,
0.396 0.914 -0.078,
0.373 0.914 -0.154,
0.336 0.914 -0.224,
0.285 0.914 -0.285,
0.224 0.914 -0.336,
0.154 0.914 -0.373,
0.078 0.914 -0.396,
0 0.914 -0.404,
]}
normalPerVertex TRUE
coordIndex [
226, 16, 241, -1,211, 16, 226, -1,196, 16, 211, -1,
181, 16, 196, -1,166, 16, 181, -1,151, 16, 166, -1,
136, 16, 151, -1,121, 16, 136, -1,106, 16, 121, -1,
91, 16, 106, -1,76, 16, 91, -1,61, 16, 76, -1,
46, 16, 61, -1,15, 16, 46, -1,17, 16, 15, -1,
241, 240, 226, -1,226, 225, 211, -1,225, 226, 240, -1,
211, 210, 196, -1,210, 211, 225, -1,196, 195, 181, -1,
195, 196, 210, -1,181, 180, 166, -1,180, 181, 195, -1,
165, 166, 180, -1,166, 165, 151, -1,151, 150, 136, -1,
150, 151, 165, -1,136, 135, 121, -1,135, 136, 150, -1,
120, 121, 135, -1,121, 120, 106, -1,106, 105, 91, -1,
105, 106, 120, -1,91, 90, 76, -1,90, 91, 105, -1,
75, 76, 90, -1,76, 75, 61, -1,61, 60, 46, -1,
60, 61, 75, -1,46, 45, 15, -1,45, 46, 60, -1,
14, 15, 45, -1,15, 14, 17, -1,18, 17, 14, -1,
240, 239, 225, -1,225, 224, 210, -1,224, 225, 239, -1,
210, 209, 195, -1,209, 210, 224, -1,194, 195, 209, -1,
195, 194, 180, -1,179, 180, 194, -1,180, 179, 165, -1,
165, 164, 150, -1,164, 165, 179, -1,150, 149, 135, -1,
149, 150, 164, -1,135, 134, 120, -1,134, 135, 149, -1,
119, 120, 134, -1,120, 119, 105, -1,105, 104, 90, -1,
104, 105, 119, -1,90, 89, 75, -1,89, 90, 104, -1,
74, 75, 89, -1,75, 74, 60, -1,59, 60, 74, -1,
60, 59, 45, -1,45, 44, 14, -1,44, 45, 59, -1,
14, 13, 18, -1,13, 14, 44, -1,19, 18, 13, -1,
239, 238, 224, -1,223, 224, 238, -1,224, 223, 209, -1,
209, 208, 194, -1,208, 209, 223, -1,194, 193, 179, -1,
193, 194, 208, -1,178, 179, 193, -1,179, 178, 164, -1,
163, 164, 178, -1,164, 163, 149, -1,148, 149, 163, -1,
149, 148, 134, -1,134, 133, 119, -1,133, 134, 148, -1,
118, 119, 133, -1,119, 118, 104, -1,103, 104, 118, -1,
104, 103, 89, -1,89, 88, 74, -1,88, 89, 103, -1,
74, 73, 59, -1,73, 74, 88, -1,59, 58, 44, -1,
58, 59, 73, -1,44, 43, 13, -1,43, 44, 58, -1,
13, 12, 19, -1,12, 13, 43, -1,20, 19, 12, -1,
238, 237, 223, -1,222, 223, 237, -1,223, 222, 208, -1,
207, 208, 222, -1,208, 207, 193, -1,193, 192, 178, -1,
192, 193, 207, -1,177, 178, 192, -1,178, 177, 163, -1,
162, 163, 177, -1,163, 162, 148, -1,147, 148, 162, -1,
148, 147, 133, -1,132, 133, 147, -1,133, 132, 118, -1,
118, 117, 103, -1,117, 118, 132, -1,103, 102, 88, -1,
102, 103, 117, -1,88, 87, 73, -1,87, 88, 102, -1,
73, 72, 58, -1,72, 73, 87, -1,58, 57, 43, -1,
57, 58, 72, -1,43, 42, 12, -1,42, 43, 57, -1,
12, 11, 20, -1,11, 12, 42, -1,21, 20, 11, -1,
237, 236, 222, -1,221, 222, 236, -1,222, 221, 207, -1,
207, 206, 192, -1,206, 207, 221, -1,191, 192, 206, -1,
192, 191, 177, -1,176, 177, 191, -1,177, 176, 162, -1,
161, 162, 176, -1,162, 161, 147, -1,146, 147, 161, -1,
147, 146, 132, -1,131, 132, 146, -1,132, 131, 117, -1,
117, 116, 102, -1,116, 117, 131, -1,101, 102, 116, -1,
102, 101, 87, -1,86, 87, 101, -1,87, 86, 72, -1,
71, 72, 86, -1,72, 71, 57, -1,57, 56, 42, -1,
56, 57, 71, -1,41, 42, 56, -1,42, 41, 11, -1,
11, 10, 21, -1,10, 11, 41, -1,22, 21, 10, -1,
236, 235, 221, -1,221, 220, 206, -1,220, 221, 235, -1,
205, 206, 220, -1,206, 205, 191, -1,190, 191, 205, -1,
191, 190, 176, -1,175, 176, 190, -1,176, 175, 161, -1,
160, 161, 175, -1,161, 160, 146, -1,145, 146, 160, -1,
146, 145, 131, -1,131, 130, 116, -1,130, 131, 145, -1,
115, 116, 130, -1,116, 115, 101, -1,101, 100, 86, -1,
100, 101, 115, -1,85, 86, 100, -1,86, 85, 71, -1,
70, 71, 85, -1,71, 70, 56, -1,55, 56, 70, -1,
56, 55, 41, -1,41, 40, 10, -1,40, 41, 55, -1,
9, 10, 40, -1,10, 9, 22, -1,23, 22, 9, -1,
235, 234, 220, -1,219, 220, 234, -1,220, 219, 205, -1,
205, 204, 190, -1,204, 205, 219, -1,189, 190, 204, -1,
190, 189, 175, -1,175, 174, 160, -1,174, 175, 189, -1,
160, 159, 145, -1,159, 160, 174, -1,145, 144, 130, -1,
144, 145, 159, -1,130, 129, 115, -1,129, 130, 144, -1,
115, 114, 100, -1,114, 115, 129, -1,100, 99, 85, -1,
99, 100, 114, -1,84, 85, 99, -1,85, 84, 70, -1,
69, 70, 84, -1,70, 69, 55, -1,54, 55, 69, -1,
55, 54, 40, -1,40, 39, 9, -1,39, 40, 54, -1,
8, 9, 39, -1,9, 8, 23, -1,24, 23, 8, -1,
234, 233, 219, -1,219, 218, 204, -1,218, 219, 233, -1,
203, 204, 218, -1,204, 203, 189, -1,188, 189, 203, -1,
189, 188, 174, -1,173, 174, 188, -1,174, 173, 159, -1,
159, 158, 144, -1,158, 159, 173, -1,144, 143, 129, -1,
143, 144, 158, -1,129, 128, 114, -1,128, 129, 143, -1,
113, 114, 128, -1,114, 113, 99, -1,99, 98, 84, -1,
98, 99, 113, -1,84, 83, 69, -1,83, 84, 98, -1,
69, 68, 54, -1,68, 69, 83, -1,53, 54, 68, -1,
54, 53, 39, -1,38, 39, 53, -1,39, 38, 8, -1,
7, 8, 38, -1,8, 7, 24, -1,25, 24, 7, -1,
233, 232, 218, -1,217, 218, 232, -1,218, 217, 203, -1,
203, 202, 188, -1,202, 203, 217, -1,188, 187, 173, -1,
187, 188, 202, -1,173, 172, 158, -1,172, 173, 187, -1,
157, 158, 172, -1,158, 157, 143, -1,142, 143, 157, -1,
143, 142, 128, -1,127, 128, 142, -1,128, 127, 113, -1,
112, 113, 127, -1,113, 112, 98, -1,98, 97, 83, -1,
97, 98, 112, -1,82, 83, 97, -1,83, 82, 68, -1,
68, 67, 53, -1,67, 68, 82, -1,52, 53, 67, -1,
53, 52, 38, -1,37, 38, 52, -1,38, 37, 7, -1,
7, 6, 25, -1,6, 7, 37, -1,26, 25, 6, -1,
232, 231, 217, -1,217, 216, 202, -1,216, 217, 231, -1,
201, 202, 216, -1,202, 201, 187, -1,187, 186, 172, -1,
186, 187, 201, -1,172, 171, 157, -1,171, 172, 186, -1,
156, 157, 171, -1,157, 156, 142, -1,141, 142, 156, -1,
142, 141, 127, -1,126, 127, 141, -1,127, 126, 112, -1,
112, 111, 97, -1,111, 112, 126, -1,97, 96, 82, -1,
96, 97, 111, -1,82, 81, 67, -1,81, 82, 96, -1,
66, 67, 81, -1,67, 66, 52, -1,52, 51, 37, -1,
51, 52, 66, -1,37, 36, 6, -1,36, 37, 51, -1,
6, 5, 26, -1,5, 6, 36, -1,27, 26, 5, -1,
231, 230, 216, -1,215, 216, 230, -1,216, 215, 201, -1,
200, 201, 215, -1,201, 200, 186, -1,186, 185, 171, -1,
185, 186, 200, -1,171, 170, 156, -1,170, 171, 185, -1,
156, 155, 141, -1,155, 156, 170, -1,140, 141, 155, -1,
141, 140, 126, -1,125, 126, 140, -1,126, 125, 111, -1,
110, 111, 125, -1,111, 110, 96, -1,96, 95, 81, -1,
95, 96, 110, -1,80, 81, 95, -1,81, 80, 66, -1,
66, 65, 51, -1,65, 66, 80, -1,50, 51, 65, -1,
51, 50, 36, -1,36, 35, 5, -1,35, 36, 50, -1,
5, 4, 27, -1,4, 5, 35, -1,28, 27, 4, -1,
230, 229, 215, -1,214, 215, 229, -1,215, 214, 200, -1,
199, 200, 214, -1,200, 199, 185, -1,184, 185, 199, -1,
185, 184, 170, -1,169, 170, 184, -1,170, 169, 155, -1,
155, 154, 140, -1,154, 155, 169, -1,140, 139, 125, -1,
139, 140, 154, -1,124, 125, 139, -1,125, 124, 110, -1,
110, 109, 95, -1,109, 110, 124, -1,95, 94, 80, -1,
94, 95, 109, -1,79, 80, 94, -1,80, 79, 65, -1,
65, 64, 50, -1,64, 65, 79, -1,49, 50, 64, -1,
50, 49, 35, -1,35, 34, 4, -1,34, 35, 49, -1,
3, 4, 34, -1,4, 3, 28, -1,29, 28, 3, -1,
229, 228, 214, -1,214, 213, 199, -1,213, 214, 228, -1,
199, 198, 184, -1,198, 199, 213, -1,184, 183, 169, -1,
183, 184, 198, -1,168, 169, 183, -1,169, 168, 154, -1,
153, 154, 168, -1,154, 153, 139, -1,139, 138, 124, -1,
138, 139, 153, -1,123, 124, 138, -1,124, 123, 109, -1,
108, 109, 123, -1,109, 108, 94, -1,94, 93, 79, -1,
93, 94, 108, -1,78, 79, 93, -1,79, 78, 64, -1,
64, 63, 49, -1,63, 64, 78, -1,49, 48, 34, -1,
48, 49, 63, -1,34, 33, 3, -1,33, 34, 48, -1,
2, 3, 33, -1,3, 2, 29, -1,30, 29, 2, -1,
228, 227, 213, -1,213, 212, 198, -1,212, 213, 227, -1,
197, 198, 212, -1,198, 197, 183, -1,183, 182, 168, -1,
182, 183, 197, -1,167, 168, 182, -1,168, 167, 153, -1,
152, 153, 167, -1,153, 152, 138, -1,137, 138, 152, -1,
138, 137, 123, -1,123, 122, 108, -1,122, 123, 137, -1,
108, 107, 93, -1,107, 108, 122, -1,93, 92, 78, -1,
92, 93, 107, -1,77, 78, 92, -1,78, 77, 63, -1,
62, 63, 77, -1,63, 62, 48, -1,48, 47, 33, -1,
47, 48, 62, -1,32, 33, 47, -1,33, 32, 2, -1,
1, 2, 32, -1,2, 1, 30, -1,31, 30, 1, -1,
227, 0, 212, -1,212, 0, 197, -1,197, 0, 182, -1,
182, 0, 167, -1,167, 0, 152, -1,152, 0, 137, -1,
137, 0, 122, -1,122, 0, 107, -1,107, 0, 92, -1,
92, 0, 77, -1,77, 0, 62, -1,62, 0, 47, -1,
47, 0, 32, -1,32, 0, 1, -1,1, 0, 31, -1,

]
normalIndex [
226, 16, 241, -1,211, 16, 226, -1,196, 16, 211, -1,
181, 16, 196, -1,166, 16, 181, -1,151, 16, 166, -1,
136, 16, 151, -1,121, 16, 136, -1,106, 16, 121, -1,
91, 16, 106, -1,76, 16, 91, -1,61, 16, 76, -1,
46, 16, 61, -1,15, 16, 46, -1,17, 16, 15, -1,
241, 240, 226, -1,226, 225, 211, -1,225, 226, 240, -1,
211, 210, 196, -1,210, 211, 225, -1,196, 195, 181, -1,
195, 196, 210, -1,181, 180, 166, -1,180, 181, 195, -1,
165, 166, 180, -1,166, 165, 151, -1,151, 150, 136, -1,
150, 151, 165, -1,136, 135, 121, -1,135, 136, 150, -1,
120, 121, 135, -1,121, 120, 106, -1,106, 105, 91, -1,
105, 106, 120, -1,91, 90, 76, -1,90, 91, 105, -1,
75, 76, 90, -1,76, 75, 61, -1,61, 60, 46, -1,
60, 61, 75, -1,46, 45, 15, -1,45, 46, 60, -1,
14, 15, 45, -1,15, 14, 17, -1,18, 17, 14, -1,
240, 239, 225, -1,225, 224, 210, -1,224, 225, 239, -1,
210, 209, 195, -1,209, 210, 224, -1,194, 195, 209, -1,
195, 194, 180, -1,179, 180, 194, -1,180, 179, 165, -1,
165, 164, 150, -1,164, 165, 179, -1,150, 149, 135, -1,
149, 150, 164, -1,135, 134, 120, -1,134, 135, 149, -1,
119, 120, 134, -1,120, 119, 105, -1,105, 104, 90, -1,
104, 105, 119, -1,90, 89, 75, -1,89, 90, 104, -1,
74, 75, 89, -1,75, 74, 60, -1,59, 60, 74, -1,
60, 59, 45, -1,45, 44, 14, -1,44, 45, 59, -1,
14, 13, 18, -1,13, 14, 44, -1,19, 18, 13, -1,
239, 238, 224, -1,223, 224, 238, -1,224, 223, 209, -1,
209, 208, 194, -1,208, 209, 223, -1,194, 193, 179, -1,
193, 194, 208, -1,178, 179, 193, -1,179, 178, 164, -1,
163, 164, 178, -1,164, 163, 149, -1,148, 149, 163, -1,
149, 148, 134, -1,134, 133, 119, -1,133, 134, 148, -1,
118, 119, 133, -1,119, 118, 104, -1,103, 104, 118, -1,
104, 103, 89, -1,89, 88, 74, -1,88, 89, 103, -1,
74, 73, 59, -1,73, 74, 88, -1,59, 58, 44, -1,
58, 59, 73, -1,44, 43, 13, -1,43, 44, 58, -1,
13, 12, 19, -1,12, 13, 43, -1,20, 19, 12, -1,
238, 237, 223, -1,222, 223, 237, -1,223, 222, 208, -1,
207, 208, 222, -1,208, 207, 193, -1,193, 192, 178, -1,
192, 193, 207, -1,177, 178, 192, -1,178, 177, 163, -1,
162, 163, 177, -1,163, 162, 148, -1,147, 148, 162, -1,
148, 147, 133, -1,132, 133, 147, -1,133, 132, 118, -1,
118, 117, 103, -1,117, 118, 132, -1,103, 102, 88, -1,
102, 103, 117, -1,88, 87, 73, -1,87, 88, 102, -1,
73, 72, 58, -1,72, 73, 87, -1,58, 57, 43, -1,
57, 58, 72, -1,43, 42, 12, -1,42, 43, 57, -1,
12, 11, 20, -1,11, 12, 42, -1,21, 20, 11, -1,
237, 236, 222, -1,221, 222, 236, -1,222, 221, 207, -1,
207, 206, 192, -1,206, 207, 221, -1,191, 192, 206, -1,
192, 191, 177, -1,176, 177, 191, -1,177, 176, 162, -1,
161, 162, 176, -1,162, 161, 147, -1,146, 147, 161, -1,
147, 146, 132, -1,131, 132, 146, -1,132, 131, 117, -1,
117, 116, 102, -1,116, 117, 131, -1,101, 102, 116, -1,
102, 101, 87, -1,86, 87, 101, -1,87, 86, 72, -1,
71, 72, 86, -1,72, 71, 57, -1,57, 56, 42, -1,
56, 57, 71, -1,41, 42, 56, -1,42, 41, 11, -1,
11, 10, 21, -1,10, 11, 41, -1,22, 21, 10, -1,
236, 235, 221, -1,221, 220, 206, -1,220, 221, 235, -1,
205, 206, 220, -1,206, 205, 191, -1,190, 191, 205, -1,
191, 190, 176, -1,175, 176, 190, -1,176, 175, 161, -1,
160, 161, 175, -1,161, 160, 146, -1,145, 146, 160, -1,
146, 145, 131, -1,131, 130, 116, -1,130, 131, 145, -1,
115, 116, 130, -1,116, 115, 101, -1,101, 100, 86, -1,
100, 101, 115, -1,85, 86, 100, -1,86, 85, 71, -1,
70, 71, 85, -1,71, 70, 56, -1,55, 56, 70, -1,
56, 55, 41, -1,41, 40, 10, -1,40, 41, 55, -1,
9, 10, 40, -1,10, 9, 22, -1,23, 22, 9, -1,
235, 234, 220, -1,219, 220, 234, -1,220, 219, 205, -1,
205, 204, 190, -1,204, 205, 219, -1,189, 190, 204, -1,
190, 189, 175, -1,175, 174, 160, -1,174, 175, 189, -1,
160, 159, 145, -1,159, 160, 174, -1,145, 144, 130, -1,
144, 145, 159, -1,130, 129, 115, -1,129, 130, 144, -1,
115, 114, 100, -1,114, 115, 129, -1,100, 99, 85, -1,
99, 100, 114, -1,84, 85, 99, -1,85, 84, 70, -1,
69, 70, 84, -1,70, 69, 55, -1,54, 55, 69, -1,
55, 54, 40, -1,40, 39, 9, -1,39, 40, 54, -1,
8, 9, 39, -1,9, 8, 23, -1,24, 23, 8, -1,
234, 233, 219, -1,219, 218, 204, -1,218, 219, 233, -1,
203, 204, 218, -1,204, 203, 189, -1,188, 189, 203, -1,
189, 188, 174, -1,173, 174, 188, -1,174, 173, 159, -1,
159, 158, 144, -1,158, 159, 173, -1,144, 143, 129, -1,
143, 144, 158, -1,129, 128, 114, -1,128, 129, 143, -1,
113, 114, 128, -1,114, 113, 99, -1,99, 98, 84, -1,
98, 99, 113, -1,84, 83, 69, -1,83, 84, 98, -1,
69, 68, 54, -1,68, 69, 83, -1,53, 54, 68, -1,
54, 53, 39, -1,38, 39, 53, -1,39, 38, 8, -1,
7, 8, 38, -1,8, 7, 24, -1,25, 24, 7, -1,
233, 232, 218, -1,217, 218, 232, -1,218, 217, 203, -1,
203, 202, 188, -1,202, 203, 217, -1,188, 187, 173, -1,
187, 188, 202, -1,173, 172, 158, -1,172, 173, 187, -1,
157, 158, 172, -1,158, 157, 143, -1,142, 143, 157, -1,
143, 142, 128, -1,127, 128, 142, -1,128, 127, 113, -1,
112, 113, 127, -1,113, 112, 98, -1,98, 97, 83, -1,
97, 98, 112, -1,82, 83, 97, -1,83, 82, 68, -1,
68, 67, 53, -1,67, 68, 82, -1,52, 53, 67, -1,
53, 52, 38, -1,37, 38, 52, -1,38, 37, 7, -1,
7, 6, 25, -1,6, 7, 37, -1,26, 25, 6, -1,
232, 231, 217, -1,217, 216, 202, -1,216, 217, 231, -1,
201, 202, 216, -1,202, 201, 187, -1,187, 186, 172, -1,
186, 187, 201, -1,172, 171, 157, -1,171, 172, 186, -1,
156, 157, 171, -1,157, 156, 142, -1,141, 142, 156, -1,
142, 141, 127, -1,126, 127, 141, -1,127, 126, 112, -1,
112, 111, 97, -1,111, 112, 126, -1,97, 96, 82, -1,
96, 97, 111, -1,82, 81, 67, -1,81, 82, 96, -1,
66, 67, 81, -1,67, 66, 52, -1,52, 51, 37, -1,
51, 52, 66, -1,37, 36, 6, -1,36, 37, 51, -1,
6, 5, 26, -1,5, 6, 36, -1,27, 26, 5, -1,
231, 230, 216, -1,215, 216, 230, -1,216, 215, 201, -1,
200, 201, 215, -1,201, 200, 186, -1,186, 185, 171, -1,
185, 186, 200, -1,171, 170, 156, -1,170, 171, 185, -1,
156, 155, 141, -1,155, 156, 170, -1,140, 141, 155, -1,
141, 140, 126, -1,125, 126, 140, -1,126, 125, 111, -1,
110, 111, 125, -1,111, 110, 96, -1,96, 95, 81, -1,
95, 96, 110, -1,80, 81, 95, -1,81, 80, 66, -1,
66, 65, 51, -1,65, 66, 80, -1,50, 51, 65, -1,
51, 50, 36, -1,36, 35, 5, -1,35, 36, 50, -1,
5, 4, 27, -1,4, 5, 35, -1,28, 27, 4, -1,
230, 229, 215, -1,214, 215, 229, -1,215, 214, 200, -1,
199, 200, 214, -1,200, 199, 185, -1,184, 185, 199, -1,
185, 184, 170, -1,169, 170, 184, -1,170, 169, 155, -1,
155, 154, 140, -1,154, 155, 169, -1,140, 139, 125, -1,
139, 140, 154, -1,124, 125, 139, -1,125, 124, 110, -1,
110, 109, 95, -1,109, 110, 124, -1,95, 94, 80, -1,
94, 95, 109, -1,79, 80, 94, -1,80, 79, 65, -1,
65, 64, 50, -1,64, 65, 79, -1,49, 50, 64, -1,
50, 49, 35, -1,35, 34, 4, -1,34, 35, 49, -1,
3, 4, 34, -1,4, 3, 28, -1,29, 28, 3, -1,
229, 228, 214, -1,214, 213, 199, -1,213, 214, 228, -1,
199, 198, 184, -1,198, 199, 213, -1,184, 183, 169, -1,
183, 184, 198, -1,168, 169, 183, -1,169, 168, 154, -1,
153, 154, 168, -1,154, 153, 139, -1,139, 138, 124, -1,
138, 139, 153, -1,123, 124, 138, -1,124, 123, 109, -1,
108, 109, 123, -1,109, 108, 94, -1,94, 93, 79, -1,
93, 94, 108, -1,78, 79, 93, -1,79, 78, 64, -1,
64, 63, 49, -1,63, 64, 78, -1,49, 48, 34, -1,
48, 49, 63, -1,34, 33, 3, -1,33, 34, 48, -1,
2, 3, 33, -1,3, 2, 29, -1,30, 29, 2, -1,
228, 227, 213, -1,213, 212, 198, -1,212, 213, 227, -1,
197, 198, 212, -1,198, 197, 183, -1,183, 182, 168, -1,
182, 183, 197, -1,167, 168, 182, -1,168, 167, 153, -1,
152, 153, 167, -1,153, 152, 138, -1,137, 138, 152, -1,
138, 137, 123, -1,123, 122, 108, -1,122, 123, 137, -1,
108, 107, 93, -1,107, 108, 122, -1,93, 92, 78, -1,
92, 93, 107, -1,77, 78, 92, -1,78, 77, 63, -1,
62, 63, 77, -1,63, 62, 48, -1,48, 47, 33, -1,
47, 48, 62, -1,32, 33, 47, -1,33, 32, 2, -1,
1, 2, 32, -1,2, 1, 30, -1,31, 30, 1, -1,
227, 0, 212, -1,212, 0, 197, -1,197, 0, 182, -1,
182, 0, 167, -1,167, 0, 152, -1,152, 0, 137, -1,
137, 0, 122, -1,122, 0, 107, -1,107, 0, 92, -1,
92, 0, 77, -1,77, 0, 62, -1,62, 0, 47, -1,
47, 0, 32, -1,32, 0, 1, -1,1, 0, 31, -1,

]
}

}

]
}

DEF myShape_55 Group {
children [
Node_Info {
node_type "Poly_Surface"
node_name "Poly_Surf_55"
}
Shape {
geometry IndexedFaceSet {
ccw  TRUE
solid  TRUE
convex TRUE
coord USE FaceC 

normal USE FaceN 

normalPerVertex TRUE
coordIndex [
243, 479, 240, -1,242, 243, 240, -1,478, 462, 239, -1,
479, 478, 239, -1,478, 479, 243, -1,461, 445, 238, -1,
462, 461, 238, -1,461, 462, 478, -1,444, 445, 461, -1,
444, 428, 237, -1,445, 444, 237, -1,427, 411, 236, -1,
428, 427, 236, -1,427, 428, 444, -1,410, 411, 427, -1,
410, 394, 235, -1,411, 410, 235, -1,393, 377, 234, -1,
394, 393, 234, -1,393, 394, 410, -1,376, 377, 393, -1,
376, 360, 233, -1,377, 376, 233, -1,359, 360, 376, -1,
359, 343, 232, -1,360, 359, 232, -1,342, 326, 231, -1,
343, 342, 231, -1,342, 343, 359, -1,325, 326, 342, -1,
325, 309, 230, -1,326, 325, 230, -1,308, 309, 325, -1,
308, 292, 229, -1,309, 308, 229, -1,291, 275, 228, -1,
292, 291, 228, -1,291, 292, 308, -1,274, 275, 291, -1,
274, 0, 227, -1,275, 274, 227, -1,16, 243, 242, -1,
16, 242, 241, -1,243, 244, 478, -1,244, 243, 16, -1,
478, 477, 461, -1,477, 478, 244, -1,460, 461, 477, -1,
461, 460, 444, -1,444, 443, 427, -1,443, 444, 460, -1,
426, 427, 443, -1,427, 426, 410, -1,410, 409, 393, -1,
409, 410, 426, -1,393, 392, 376, -1,392, 393, 409, -1,
376, 375, 359, -1,375, 376, 392, -1,358, 359, 375, -1,
359, 358, 342, -1,341, 342, 358, -1,342, 341, 325, -1,
325, 324, 308, -1,324, 325, 341, -1,308, 307, 291, -1,
307, 308, 324, -1,290, 291, 307, -1,291, 290, 274, -1,
274, 273, 0, -1,273, 274, 290, -1,244, 245, 477, -1,
245, 244, 16, -1,476, 477, 245, -1,477, 476, 460, -1,
460, 459, 443, -1,459, 460, 476, -1,443, 442, 426, -1,
442, 443, 459, -1,426, 425, 409, -1,425, 426, 442, -1,
408, 409, 425, -1,409, 408, 392, -1,392, 391, 375, -1,
391, 392, 408, -1,375, 374, 358, -1,374, 375, 391, -1,
358, 357, 341, -1,357, 358, 374, -1,341, 340, 324, -1,
340, 341, 357, -1,323, 324, 340, -1,324, 323, 307, -1,
306, 307, 323, -1,307, 306, 290, -1,289, 290, 306, -1,
290, 289, 273, -1,272, 273, 289, -1,273, 272, 0, -1,
246, 245, 16, -1,245, 246, 476, -1,475, 476, 246, -1,
476, 475, 459, -1,458, 459, 475, -1,459, 458, 442, -1,
441, 442, 458, -1,442, 441, 425, -1,425, 424, 408, -1,
424, 425, 441, -1,408, 407, 391, -1,407, 408, 424, -1,
390, 391, 407, -1,391, 390, 374, -1,373, 374, 390, -1,
374, 373, 357, -1,356, 357, 373, -1,357, 356, 340, -1,
339, 340, 356, -1,340, 339, 323, -1,323, 322, 306, -1,
322, 323, 339, -1,305, 306, 322, -1,306, 305, 289, -1,
289, 288, 272, -1,288, 289, 305, -1,272, 271, 0, -1,
271, 272, 288, -1,246, 247, 475, -1,247, 246, 16, -1,
475, 474, 458, -1,474, 475, 247, -1,458, 457, 441, -1,
457, 458, 474, -1,440, 441, 457, -1,441, 440, 424, -1,
423, 424, 440, -1,424, 423, 407, -1,407, 406, 390, -1,
406, 407, 423, -1,389, 390, 406, -1,390, 389, 373, -1,
372, 373, 389, -1,373, 372, 356, -1,356, 355, 339, -1,
355, 356, 372, -1,339, 338, 322, -1,338, 339, 355, -1,
322, 321, 305, -1,321, 322, 338, -1,304, 305, 321, -1,
305, 304, 288, -1,288, 287, 271, -1,287, 288, 304, -1,
271, 270, 0, -1,270, 271, 287, -1,248, 247, 16, -1,
247, 248, 474, -1,473, 474, 248, -1,474, 473, 457, -1,
456, 457, 473, -1,457, 456, 440, -1,439, 440, 456, -1,
440, 439, 423, -1,422, 423, 439, -1,423, 422, 406, -1,
406, 405, 389, -1,405, 406, 422, -1,388, 389, 405, -1,
389, 388, 372, -1,372, 371, 355, -1,371, 372, 388, -1,
354, 355, 371, -1,355, 354, 338, -1,338, 337, 321, -1,
337, 338, 354, -1,320, 321, 337, -1,321, 320, 304, -1,
304, 303, 287, -1,303, 304, 320, -1,287, 286, 270, -1,
286, 287, 303, -1,269, 270, 286, -1,270, 269, 0, -1,
248, 249, 473, -1,249, 248, 16, -1,473, 472, 456, -1,
472, 473, 249, -1,455, 456, 472, -1,456, 455, 439, -1,
439, 438, 422, -1,438, 439, 455, -1,422, 421, 405, -1,
421, 422, 438, -1,405, 404, 388, -1,404, 405, 421, -1,
388, 387, 371, -1,387, 388, 404, -1,371, 370, 354, -1,
370, 371, 387, -1,353, 354, 370, -1,354, 353, 337, -1,
336, 337, 353, -1,337, 336, 320, -1,319, 320, 336, -1,
320, 319, 303, -1,303, 302, 286, -1,302, 303, 319, -1,
285, 286, 302, -1,286, 285, 269, -1,269, 268, 0, -1,
268, 269, 285, -1,249, 250, 472, -1,250, 249, 16, -1,
472, 471, 455, -1,471, 472, 250, -1,454, 455, 471, -1,
455, 454, 438, -1,437, 438, 454, -1,438, 437, 421, -1,
420, 421, 437, -1,421, 420, 404, -1,404, 403, 387, -1,
403, 404, 420, -1,386, 387, 403, -1,387, 386, 370, -1,
369, 370, 386, -1,370, 369, 353, -1,352, 353, 369, -1,
353, 352, 336, -1,336, 335, 319, -1,335, 336, 352, -1,
319, 318, 302, -1,318, 319, 335, -1,302, 301, 285, -1,
301, 302, 318, -1,285, 284, 268, -1,284, 285, 301, -1,
267, 268, 284, -1,268, 267, 0, -1,250, 251, 471, -1,
251, 250, 16, -1,470, 471, 251, -1,471, 470, 454, -1,
453, 454, 470, -1,454, 453, 437, -1,437, 436, 420, -1,
436, 437, 453, -1,420, 419, 403, -1,419, 420, 436, -1,
402, 403, 419, -1,403, 402, 386, -1,386, 385, 369, -1,
385, 386, 402, -1,368, 369, 385, -1,369, 368, 352, -1,
352, 351, 335, -1,351, 352, 368, -1,335, 334, 318, -1,
334, 335, 351, -1,318, 317, 301, -1,317, 318, 334, -1,
301, 300, 284, -1,300, 301, 317, -1,284, 283, 267, -1,
283, 284, 300, -1,266, 267, 283, -1,267, 266, 0, -1,
252, 251, 16, -1,251, 252, 470, -1,469, 470, 252, -1,
470, 469, 453, -1,453, 452, 436, -1,452, 453, 469, -1,
436, 435, 419, -1,435, 436, 452, -1,419, 418, 402, -1,
418, 419, 435, -1,401, 402, 418, -1,402, 401, 385, -1,
385, 384, 368, -1,384, 385, 401, -1,368, 367, 351, -1,
367, 368, 384, -1,350, 351, 367, -1,351, 350, 334, -1,
333, 334, 350, -1,334, 333, 317, -1,317, 316, 300, -1,
316, 317, 333, -1,300, 299, 283, -1,299, 300, 316, -1,
282, 283, 299, -1,283, 282, 266, -1,266, 265, 0, -1,
265, 266, 282, -1,252, 253, 469, -1,253, 252, 16, -1,
469, 468, 452, -1,468, 469, 253, -1,452, 451, 435, -1,
451, 452, 468, -1,434, 435, 451, -1,435, 434, 418, -1,
418, 417, 401, -1,417, 418, 434, -1,400, 401, 417, -1,
401, 400, 384, -1,384, 383, 367, -1,383, 384, 400, -1,
366, 367, 383, -1,367, 366, 350, -1,350, 349, 333, -1,
349, 350, 366, -1,332, 333, 349, -1,333, 332, 316, -1,
315, 316, 332, -1,316, 315, 299, -1,299, 298, 282, -1,
298, 299, 315, -1,281, 282, 298, -1,282, 281, 265, -1,
265, 264, 0, -1,264, 265, 281, -1,254, 253, 16, -1,
253, 254, 468, -1,468, 467, 451, -1,467, 468, 254, -1,
450, 451, 467, -1,451, 450, 434, -1,434, 433, 417, -1,
433, 434, 450, -1,416, 417, 433, -1,417, 416, 400, -1,
399, 400, 416, -1,400, 399, 383, -1,382, 383, 399, -1,
383, 382, 366, -1,366, 365, 349, -1,365, 366, 382, -1,
348, 349, 365, -1,349, 348, 332, -1,332, 331, 315, -1,
331, 332, 348, -1,315, 314, 298, -1,314, 315, 331, -1,
298, 297, 281, -1,297, 298, 314, -1,280, 281, 297, -1,
281, 280, 264, -1,263, 264, 280, -1,264, 263, 0, -1,
254, 255, 467, -1,255, 254, 16, -1,467, 466, 450, -1,
466, 467, 255, -1,450, 449, 433, -1,449, 450, 466, -1,
433, 432, 416, -1,432, 433, 449, -1,416, 415, 399, -1,
415, 416, 432, -1,398, 399, 415, -1,399, 398, 382, -1,
381, 382, 398, -1,382, 381, 365, -1,364, 365, 381, -1,
365, 364, 348, -1,348, 347, 331, -1,347, 348, 364, -1,
331, 330, 314, -1,330, 331, 347, -1,313, 314, 330, -1,
314, 313, 297, -1,296, 297, 313, -1,297, 296, 280, -1,
280, 279, 263, -1,279, 280, 296, -1,262, 263, 279, -1,
263, 262, 0, -1,255, 256, 466, -1,256, 255, 16, -1,
465, 466, 256, -1,466, 465, 449, -1,448, 449, 465, -1,
449, 448, 432, -1,432, 431, 415, -1,431, 432, 448, -1,
415, 414, 398, -1,414, 415, 431, -1,398, 397, 381, -1,
397, 398, 414, -1,380, 381, 397, -1,381, 380, 364, -1,
363, 364, 380, -1,364, 363, 347, -1,347, 346, 330, -1,
346, 347, 363, -1,329, 330, 346, -1,330, 329, 313, -1,
312, 313, 329, -1,313, 312, 296, -1,295, 296, 312, -1,
296, 295, 279, -1,279, 278, 262, -1,278, 279, 295, -1,
262, 261, 0, -1,261, 262, 278, -1,257, 256, 16, -1,
256, 257, 465, -1,465, 464, 448, -1,464, 465, 257, -1,
447, 448, 464, -1,448, 447, 431, -1,431, 430, 414, -1,
430, 431, 447, -1,413, 414, 430, -1,414, 413, 397, -1,
397, 396, 380, -1,396, 397, 413, -1,380, 379, 363, -1,
379, 380, 396, -1,362, 363, 379, -1,363, 362, 346, -1,
346, 345, 329, -1,345, 346, 362, -1,329, 328, 312, -1,
328, 329, 345, -1,311, 312, 328, -1,312, 311, 295, -1,
294, 295, 311, -1,295, 294, 278, -1,278, 277, 261, -1,
277, 278, 294, -1,261, 260, 0, -1,260, 261, 277, -1,
257, 258, 464, -1,257, 16, 17, -1,258, 257, 17, -1,
464, 258, 18, -1,463, 464, 18, -1,464, 463, 447, -1,
447, 463, 19, -1,446, 447, 19, -1,447, 446, 430, -1,
430, 429, 413, -1,430, 446, 20, -1,429, 430, 20, -1,
413, 412, 396, -1,413, 429, 21, -1,412, 413, 21, -1,
396, 395, 379, -1,396, 412, 22, -1,395, 396, 22, -1,
379, 395, 23, -1,378, 379, 23, -1,379, 378, 362, -1,
362, 378, 24, -1,361, 362, 24, -1,362, 361, 345, -1,
345, 344, 328, -1,345, 361, 25, -1,344, 345, 25, -1,
328, 344, 26, -1,327, 328, 26, -1,328, 327, 311, -1,
311, 310, 294, -1,311, 327, 27, -1,310, 311, 27, -1,
294, 310, 28, -1,293, 294, 28, -1,294, 293, 277, -1,
277, 293, 29, -1,276, 277, 29, -1,277, 276, 260, -1,
260, 276, 30, -1,259, 260, 30, -1,0, 260, 259, -1,
0, 259, 31, -1,
]
normalIndex [
243, 479, 240, -1,242, 243, 240, -1,478, 462, 239, -1,
479, 478, 239, -1,478, 479, 243, -1,461, 445, 238, -1,
462, 461, 238, -1,461, 462, 478, -1,444, 445, 461, -1,
444, 428, 237, -1,445, 444, 237, -1,427, 411, 236, -1,
428, 427, 236, -1,427, 428, 444, -1,410, 411, 427, -1,
410, 394, 235, -1,411, 410, 235, -1,393, 377, 234, -1,
394, 393, 234, -1,393, 394, 410, -1,376, 377, 393, -1,
376, 360, 233, -1,377, 376, 233, -1,359, 360, 376, -1,
359, 343, 232, -1,360, 359, 232, -1,342, 326, 231, -1,
343, 342, 231, -1,342, 343, 359, -1,325, 326, 342, -1,
325, 309, 230, -1,326, 325, 230, -1,308, 309, 325, -1,
308, 292, 229, -1,309, 308, 229, -1,291, 275, 228, -1,
292, 291, 228, -1,291, 292, 308, -1,274, 275, 291, -1,
274, 0, 227, -1,275, 274, 227, -1,16, 243, 242, -1,
16, 242, 241, -1,243, 244, 478, -1,244, 243, 16, -1,
478, 477, 461, -1,477, 478, 244, -1,460, 461, 477, -1,
461, 460, 444, -1,444, 443, 427, -1,443, 444, 460, -1,
426, 427, 443, -1,427, 426, 410, -1,410, 409, 393, -1,
409, 410, 426, -1,393, 392, 376, -1,392, 393, 409, -1,
376, 375, 359, -1,375, 376, 392, -1,358, 359, 375, -1,
359, 358, 342, -1,341, 342, 358, -1,342, 341, 325, -1,
325, 324, 308, -1,324, 325, 341, -1,308, 307, 291, -1,
307, 308, 324, -1,290, 291, 307, -1,291, 290, 274, -1,
274, 273, 0, -1,273, 274, 290, -1,244, 245, 477, -1,
245, 244, 16, -1,476, 477, 245, -1,477, 476, 460, -1,
460, 459, 443, -1,459, 460, 476, -1,443, 442, 426, -1,
442, 443, 459, -1,426, 425, 409, -1,425, 426, 442, -1,
408, 409, 425, -1,409, 408, 392, -1,392, 391, 375, -1,
391, 392, 408, -1,375, 374, 358, -1,374, 375, 391, -1,
358, 357, 341, -1,357, 358, 374, -1,341, 340, 324, -1,
340, 341, 357, -1,323, 324, 340, -1,324, 323, 307, -1,
306, 307, 323, -1,307, 306, 290, -1,289, 290, 306, -1,
290, 289, 273, -1,272, 273, 289, -1,273, 272, 0, -1,
246, 245, 16, -1,245, 246, 476, -1,475, 476, 246, -1,
476, 475, 459, -1,458, 459, 475, -1,459, 458, 442, -1,
441, 442, 458, -1,442, 441, 425, -1,425, 424, 408, -1,
424, 425, 441, -1,408, 407, 391, -1,407, 408, 424, -1,
390, 391, 407, -1,391, 390, 374, -1,373, 374, 390, -1,
374, 373, 357, -1,356, 357, 373, -1,357, 356, 340, -1,
339, 340, 356, -1,340, 339, 323, -1,323, 322, 306, -1,
322, 323, 339, -1,305, 306, 322, -1,306, 305, 289, -1,
289, 288, 272, -1,288, 289, 305, -1,272, 271, 0, -1,
271, 272, 288, -1,246, 247, 475, -1,247, 246, 16, -1,
475, 474, 458, -1,474, 475, 247, -1,458, 457, 441, -1,
457, 458, 474, -1,440, 441, 457, -1,441, 440, 424, -1,
423, 424, 440, -1,424, 423, 407, -1,407, 406, 390, -1,
406, 407, 423, -1,389, 390, 406, -1,390, 389, 373, -1,
372, 373, 389, -1,373, 372, 356, -1,356, 355, 339, -1,
355, 356, 372, -1,339, 338, 322, -1,338, 339, 355, -1,
322, 321, 305, -1,321, 322, 338, -1,304, 305, 321, -1,
305, 304, 288, -1,288, 287, 271, -1,287, 288, 304, -1,
271, 270, 0, -1,270, 271, 287, -1,248, 247, 16, -1,
247, 248, 474, -1,473, 474, 248, -1,474, 473, 457, -1,
456, 457, 473, -1,457, 456, 440, -1,439, 440, 456, -1,
440, 439, 423, -1,422, 423, 439, -1,423, 422, 406, -1,
406, 405, 389, -1,405, 406, 422, -1,388, 389, 405, -1,
389, 388, 372, -1,372, 371, 355, -1,371, 372, 388, -1,
354, 355, 371, -1,355, 354, 338, -1,338, 337, 321, -1,
337, 338, 354, -1,320, 321, 337, -1,321, 320, 304, -1,
304, 303, 287, -1,303, 304, 320, -1,287, 286, 270, -1,
286, 287, 303, -1,269, 270, 286, -1,270, 269, 0, -1,
248, 249, 473, -1,249, 248, 16, -1,473, 472, 456, -1,
472, 473, 249, -1,455, 456, 472, -1,456, 455, 439, -1,
439, 438, 422, -1,438, 439, 455, -1,422, 421, 405, -1,
421, 422, 438, -1,405, 404, 388, -1,404, 405, 421, -1,
388, 387, 371, -1,387, 388, 404, -1,371, 370, 354, -1,
370, 371, 387, -1,353, 354, 370, -1,354, 353, 337, -1,
336, 337, 353, -1,337, 336, 320, -1,319, 320, 336, -1,
320, 319, 303, -1,303, 302, 286, -1,302, 303, 319, -1,
285, 286, 302, -1,286, 285, 269, -1,269, 268, 0, -1,
268, 269, 285, -1,249, 250, 472, -1,250, 249, 16, -1,
472, 471, 455, -1,471, 472, 250, -1,454, 455, 471, -1,
455, 454, 438, -1,437, 438, 454, -1,438, 437, 421, -1,
420, 421, 437, -1,421, 420, 404, -1,404, 403, 387, -1,
403, 404, 420, -1,386, 387, 403, -1,387, 386, 370, -1,
369, 370, 386, -1,370, 369, 353, -1,352, 353, 369, -1,
353, 352, 336, -1,336, 335, 319, -1,335, 336, 352, -1,
319, 318, 302, -1,318, 319, 335, -1,302, 301, 285, -1,
301, 302, 318, -1,285, 284, 268, -1,284, 285, 301, -1,
267, 268, 284, -1,268, 267, 0, -1,250, 251, 471, -1,
251, 250, 16, -1,470, 471, 251, -1,471, 470, 454, -1,
453, 454, 470, -1,454, 453, 437, -1,437, 436, 420, -1,
436, 437, 453, -1,420, 419, 403, -1,419, 420, 436, -1,
402, 403, 419, -1,403, 402, 386, -1,386, 385, 369, -1,
385, 386, 402, -1,368, 369, 385, -1,369, 368, 352, -1,
352, 351, 335, -1,351, 352, 368, -1,335, 334, 318, -1,
334, 335, 351, -1,318, 317, 301, -1,317, 318, 334, -1,
301, 300, 284, -1,300, 301, 317, -1,284, 283, 267, -1,
283, 284, 300, -1,266, 267, 283, -1,267, 266, 0, -1,
252, 251, 16, -1,251, 252, 470, -1,469, 470, 252, -1,
470, 469, 453, -1,453, 452, 436, -1,452, 453, 469, -1,
436, 435, 419, -1,435, 436, 452, -1,419, 418, 402, -1,
418, 419, 435, -1,401, 402, 418, -1,402, 401, 385, -1,
385, 384, 368, -1,384, 385, 401, -1,368, 367, 351, -1,
367, 368, 384, -1,350, 351, 367, -1,351, 350, 334, -1,
333, 334, 350, -1,334, 333, 317, -1,317, 316, 300, -1,
316, 317, 333, -1,300, 299, 283, -1,299, 300, 316, -1,
282, 283, 299, -1,283, 282, 266, -1,266, 265, 0, -1,
265, 266, 282, -1,252, 253, 469, -1,253, 252, 16, -1,
469, 468, 452, -1,468, 469, 253, -1,452, 451, 435, -1,
451, 452, 468, -1,434, 435, 451, -1,435, 434, 418, -1,
418, 417, 401, -1,417, 418, 434, -1,400, 401, 417, -1,
401, 400, 384, -1,384, 383, 367, -1,383, 384, 400, -1,
366, 367, 383, -1,367, 366, 350, -1,350, 349, 333, -1,
349, 350, 366, -1,332, 333, 349, -1,333, 332, 316, -1,
315, 316, 332, -1,316, 315, 299, -1,299, 298, 282, -1,
298, 299, 315, -1,281, 282, 298, -1,282, 281, 265, -1,
265, 264, 0, -1,264, 265, 281, -1,254, 253, 16, -1,
253, 254, 468, -1,468, 467, 451, -1,467, 468, 254, -1,
450, 451, 467, -1,451, 450, 434, -1,434, 433, 417, -1,
433, 434, 450, -1,416, 417, 433, -1,417, 416, 400, -1,
399, 400, 416, -1,400, 399, 383, -1,382, 383, 399, -1,
383, 382, 366, -1,366, 365, 349, -1,365, 366, 382, -1,
348, 349, 365, -1,349, 348, 332, -1,332, 331, 315, -1,
331, 332, 348, -1,315, 314, 298, -1,314, 315, 331, -1,
298, 297, 281, -1,297, 298, 314, -1,280, 281, 297, -1,
281, 280, 264, -1,263, 264, 280, -1,264, 263, 0, -1,
254, 255, 467, -1,255, 254, 16, -1,467, 466, 450, -1,
466, 467, 255, -1,450, 449, 433, -1,449, 450, 466, -1,
433, 432, 416, -1,432, 433, 449, -1,416, 415, 399, -1,
415, 416, 432, -1,398, 399, 415, -1,399, 398, 382, -1,
381, 382, 398, -1,382, 381, 365, -1,364, 365, 381, -1,
365, 364, 348, -1,348, 347, 331, -1,347, 348, 364, -1,
331, 330, 314, -1,330, 331, 347, -1,313, 314, 330, -1,
314, 313, 297, -1,296, 297, 313, -1,297, 296, 280, -1,
280, 279, 263, -1,279, 280, 296, -1,262, 263, 279, -1,
263, 262, 0, -1,255, 256, 466, -1,256, 255, 16, -1,
465, 466, 256, -1,466, 465, 449, -1,448, 449, 465, -1,
449, 448, 432, -1,432, 431, 415, -1,431, 432, 448, -1,
415, 414, 398, -1,414, 415, 431, -1,398, 397, 381, -1,
397, 398, 414, -1,380, 381, 397, -1,381, 380, 364, -1,
363, 364, 380, -1,364, 363, 347, -1,347, 346, 330, -1,
346, 347, 363, -1,329, 330, 346, -1,330, 329, 313, -1,
312, 313, 329, -1,313, 312, 296, -1,295, 296, 312, -1,
296, 295, 279, -1,279, 278, 262, -1,278, 279, 295, -1,
262, 261, 0, -1,261, 262, 278, -1,257, 256, 16, -1,
256, 257, 465, -1,465, 464, 448, -1,464, 465, 257, -1,
447, 448, 464, -1,448, 447, 431, -1,431, 430, 414, -1,
430, 431, 447, -1,413, 414, 430, -1,414, 413, 397, -1,
397, 396, 380, -1,396, 397, 413, -1,380, 379, 363, -1,
379, 380, 396, -1,362, 363, 379, -1,363, 362, 346, -1,
346, 345, 329, -1,345, 346, 362, -1,329, 328, 312, -1,
328, 329, 345, -1,311, 312, 328, -1,312, 311, 295, -1,
294, 295, 311, -1,295, 294, 278, -1,278, 277, 261, -1,
277, 278, 294, -1,261, 260, 0, -1,260, 261, 277, -1,
257, 258, 464, -1,257, 16, 17, -1,258, 257, 17, -1,
464, 258, 18, -1,463, 464, 18, -1,464, 463, 447, -1,
447, 463, 19, -1,446, 447, 19, -1,447, 446, 430, -1,
430, 429, 413, -1,430, 446, 20, -1,429, 430, 20, -1,
413, 412, 396, -1,413, 429, 21, -1,412, 413, 21, -1,
396, 395, 379, -1,396, 412, 22, -1,395, 396, 22, -1,
379, 395, 23, -1,378, 379, 23, -1,379, 378, 362, -1,
362, 378, 24, -1,361, 362, 24, -1,362, 361, 345, -1,
345, 344, 328, -1,345, 361, 25, -1,344, 345, 25, -1,
328, 344, 26, -1,327, 328, 26, -1,328, 327, 311, -1,
311, 310, 294, -1,311, 327, 27, -1,310, 311, 27, -1,
294, 310, 28, -1,293, 294, 28, -1,294, 293, 277, -1,
277, 293, 29, -1,276, 277, 29, -1,277, 276, 260, -1,
260, 276, 30, -1,259, 260, 30, -1,0, 260, 259, -1,
0, 259, 31, -1,
]
}

}

]
}

]
}

 ]
}
]
}

]
}

