#VRML V2.0 utf8
#modeled using blender3d http://blender.org

# 'Cube'
Shape {
	appearance Appearance {
		material Material {
		}
	}
	geometry IndexedFaceSet {
		coord Coordinate {
			point [ 0.602500 -0.402500 -0.010000 0.602500 -0.402500 0.010000 -0.602500 -0.402500 -0.010000 -0.602500 -0.402500 0.010000 0.602500 0.402500 -0.010000 0.602500 0.402500 0.010000 -0.602500 0.402500 -0.010000 -0.602500 0.402500 0.010000 ]
		}
		coordIndex [ 1 2 0 -1 3 6 2 -1 7 4 6 -1 5 0 4 -1 6 0 2 -1 3 5 7 -1 1 3 2 -1 3 7 6 -1 7 5 4 -1 5 1 0 -1 6 4 0 -1 3 1 5 -1 ]
	}
}
