#VRML V2.0 utf8


Group {
  children 
    Group {
      children [ 
        Group {
          children 
            Transform {
              translation -0 0 -0
              rotation 0 0 1  0
              scale 1 1 1
              scaleOrientation 0 0 1  0
              children 
                Transform {
                  translation 0 0 0.0089999996
                  rotation 0 0 1  0
                  scale 0.162 0.149 0.0089999996
                  scaleOrientation 0 0 1  0
                  children 
                    Shape {
                      appearance 
                      Appearance {
                        material 
                        Material {
                          diffuseColor 0.5 0.5 0.5

                        }

                      }
                      geometry 
                      IndexedFaceSet {
                        coord 
                        Coordinate {
                          point [ -1 -1 -1,
                              -1 1 -1,
                              1 1 -1,
                              1 -1 -1,
                              -1 -1 1,
                              -1 1 1,
                              1 1 1,
                              1 -1 1 ]

                        }
                        normal 
                        Normal {
                          vector [  ]

                        }
                        coordIndex [ 5, 1, 0, -1, 6, 2, 1, -1,
                            7, 3, 2, -1, 4, 0, 3, -1,
                            1, 2, 3, -1, 6, 5, 4, -1,
                            4, 5, 0, -1, 5, 6, 1, -1,
                            6, 7, 2, -1, 7, 4, 3, -1,
                            0, 1, 3, -1, 7, 6, 4 ]
                        ccw TRUE
                        solid FALSE
                        convex TRUE
                        creaseAngle 0

                      }

                    }

                }

            }

        },
          
        Group {
          children 
            Transform {
              translation -0.1534155 0.1385742 0.019032501
              rotation 0 0 1  0
              scale 1 1 1
              scaleOrientation 0 0 1  0

            }

        },
          
        Group {
          children 
            Transform {
              translation 0.1535342 -0.1425599 0.017204611
              rotation 0 0 1  0
              scale 1 1 1
              scaleOrientation 0 0 1  0

            }

        },
          
        Group {
          children 
            Transform {
              translation -0.152705 -0.142968 0.016795481
              rotation 0 0 1  0
              scale 1 1 1
              scaleOrientation 0 0 1  0

            }

        },
          
        Group {
          children 
            Transform {
              translation 0.15362491 0.1392168 0.01897379
              rotation 0 0 1  0
              scale 1 1 1
              scaleOrientation 0 0 1  0

            }

        } ]

    }

}
